﻿service_id,monday,tuesday,wednesday,thursday,friday,saturday,sunday,start_date,end_date
1049X,0,0,1,0,0,0,0,20210407,20210407
1050J,0,0,0,1,0,0,0,20210408,20210408
1051V,0,0,0,0,1,0,0,20210409,20210409
1052S,0,0,0,0,0,1,0,20210410,20210410
1053D,0,0,0,0,0,0,1,20210411,20210411
1054L,1,0,0,0,0,0,0,20210412,20210412
1055M,0,1,0,0,0,0,0,20210413,20210413
1056X,0,0,1,0,0,0,0,20210414,20210414
1057J,0,0,0,1,0,0,0,20210415,20210415
1058V,0,0,0,0,1,0,0,20210416,20210416
1059S,0,0,0,0,0,1,0,20210417,20210417
1060D,0,0,0,0,0,0,1,20210418,20210418
1061L,1,0,0,0,0,0,0,20210419,20210419
1062M,0,1,0,0,0,0,0,20210420,20210420
1063X,0,0,1,0,0,0,0,20210421,20210421
1064J,0,0,0,1,0,0,0,20210422,20210422
1065V,0,0,0,0,1,0,0,20210423,20210423
1066S,0,0,0,0,0,1,0,20210424,20210424
1067D,0,0,0,0,0,0,1,20210425,20210425
1068L,1,0,0,0,0,0,0,20210426,20210426
1069M,0,1,0,0,0,0,0,20210427,20210427
1070X,0,0,1,0,0,0,0,20210428,20210428
1071J,0,0,0,1,0,0,0,20210429,20210429
1072V,0,0,0,0,1,0,0,20210430,20210430
1073S,0,0,0,0,0,1,0,20210501,20210501
1074D,0,0,0,0,0,0,1,20210502,20210502
1075L,1,0,0,0,0,0,0,20210503,20210503
1076M,0,1,0,0,0,0,0,20210504,20210504
1077X,0,0,1,0,0,0,0,20210505,20210505
1078J,0,0,0,1,0,0,0,20210506,20210506
1079V,0,0,0,0,1,0,0,20210507,20210507
2049X,0,0,1,0,0,0,0,20210407,20210407
2050J,0,0,0,1,0,0,0,20210408,20210408
2051V,0,0,0,0,1,0,0,20210409,20210409
2052S,0,0,0,0,0,1,0,20210410,20210410
2053D,0,0,0,0,0,0,1,20210411,20210411
2054L,1,0,0,0,0,0,0,20210412,20210412
2055M,0,1,0,0,0,0,0,20210413,20210413
2056X,0,0,1,0,0,0,0,20210414,20210414
2057J,0,0,0,1,0,0,0,20210415,20210415
2058V,0,0,0,0,1,0,0,20210416,20210416
2059S,0,0,0,0,0,1,0,20210417,20210417
2060D,0,0,0,0,0,0,1,20210418,20210418
2061L,1,0,0,0,0,0,0,20210419,20210419
2062M,0,1,0,0,0,0,0,20210420,20210420
2063X,0,0,1,0,0,0,0,20210421,20210421
2064J,0,0,0,1,0,0,0,20210422,20210422
2065V,0,0,0,0,1,0,0,20210423,20210423
2066S,0,0,0,0,0,1,0,20210424,20210424
2067D,0,0,0,0,0,0,1,20210425,20210425
2068L,1,0,0,0,0,0,0,20210426,20210426
2069M,0,1,0,0,0,0,0,20210427,20210427
2070X,0,0,1,0,0,0,0,20210428,20210428
2071J,0,0,0,1,0,0,0,20210429,20210429
2072V,0,0,0,0,1,0,0,20210430,20210430
2073S,0,0,0,0,0,1,0,20210501,20210501
2074D,0,0,0,0,0,0,1,20210502,20210502
2075L,1,0,0,0,0,0,0,20210503,20210503
2076M,0,1,0,0,0,0,0,20210504,20210504
2077X,0,0,1,0,0,0,0,20210505,20210505
2078J,0,0,0,1,0,0,0,20210506,20210506
2079V,0,0,0,0,1,0,0,20210507,20210507
3049X,0,0,1,0,0,0,0,20210407,20210407
3050J,0,0,0,1,0,0,0,20210408,20210408
3051V,0,0,0,0,1,0,0,20210409,20210409
3052S,0,0,0,0,0,1,0,20210410,20210410
3053D,0,0,0,0,0,0,1,20210411,20210411
3054L,1,0,0,0,0,0,0,20210412,20210412
3055M,0,1,0,0,0,0,0,20210413,20210413
3056X,0,0,1,0,0,0,0,20210414,20210414
3057J,0,0,0,1,0,0,0,20210415,20210415
3058V,0,0,0,0,1,0,0,20210416,20210416
3059S,0,0,0,0,0,1,0,20210417,20210417
3060D,0,0,0,0,0,0,1,20210418,20210418
3061L,1,0,0,0,0,0,0,20210419,20210419
3062M,0,1,0,0,0,0,0,20210420,20210420
3063X,0,0,1,0,0,0,0,20210421,20210421
3064J,0,0,0,1,0,0,0,20210422,20210422
3065V,0,0,0,0,1,0,0,20210423,20210423
3066S,0,0,0,0,0,1,0,20210424,20210424
3067D,0,0,0,0,0,0,1,20210425,20210425
3068L,1,0,0,0,0,0,0,20210426,20210426
3069M,0,1,0,0,0,0,0,20210427,20210427
3070X,0,0,1,0,0,0,0,20210428,20210428
3071J,0,0,0,1,0,0,0,20210429,20210429
3072V,0,0,0,0,1,0,0,20210430,20210430
3073S,0,0,0,0,0,1,0,20210501,20210501
3074D,0,0,0,0,0,0,1,20210502,20210502
3075L,1,0,0,0,0,0,0,20210503,20210503
3076M,0,1,0,0,0,0,0,20210504,20210504
3077X,0,0,1,0,0,0,0,20210505,20210505
3078J,0,0,0,1,0,0,0,20210506,20210506
3079V,0,0,0,0,1,0,0,20210507,20210507
3149X,0,0,1,0,0,0,0,20210407,20210407
3150J,0,0,0,1,0,0,0,20210408,20210408
3151V,0,0,0,0,1,0,0,20210409,20210409
3152S,0,0,0,0,0,1,0,20210410,20210410
3153D,0,0,0,0,0,0,1,20210411,20210411
3154L,1,0,0,0,0,0,0,20210412,20210412
3155M,0,1,0,0,0,0,0,20210413,20210413
3156X,0,0,1,0,0,0,0,20210414,20210414
3157J,0,0,0,1,0,0,0,20210415,20210415
3158V,0,0,0,0,1,0,0,20210416,20210416
3159S,0,0,0,0,0,1,0,20210417,20210417
3160D,0,0,0,0,0,0,1,20210418,20210418
3161L,1,0,0,0,0,0,0,20210419,20210419
3162M,0,1,0,0,0,0,0,20210420,20210420
3163X,0,0,1,0,0,0,0,20210421,20210421
3164J,0,0,0,1,0,0,0,20210422,20210422
3165V,0,0,0,0,1,0,0,20210423,20210423
3166S,0,0,0,0,0,1,0,20210424,20210424
3167D,0,0,0,0,0,0,1,20210425,20210425
3168L,1,0,0,0,0,0,0,20210426,20210426
3169M,0,1,0,0,0,0,0,20210427,20210427
3170X,0,0,1,0,0,0,0,20210428,20210428
3171J,0,0,0,1,0,0,0,20210429,20210429
3172V,0,0,0,0,1,0,0,20210430,20210430
3173S,0,0,0,0,0,1,0,20210501,20210501
3174D,0,0,0,0,0,0,1,20210502,20210502
3175L,1,0,0,0,0,0,0,20210503,20210503
3176M,0,1,0,0,0,0,0,20210504,20210504
3177X,0,0,1,0,0,0,0,20210505,20210505
3178J,0,0,0,1,0,0,0,20210506,20210506
3179V,0,0,0,0,1,0,0,20210507,20210507
3249X,0,0,1,0,0,0,0,20210407,20210407
3250J,0,0,0,1,0,0,0,20210408,20210408
3251V,0,0,0,0,1,0,0,20210409,20210409
3252S,0,0,0,0,0,1,0,20210410,20210410
3253D,0,0,0,0,0,0,1,20210411,20210411
3254L,1,0,0,0,0,0,0,20210412,20210412
3255M,0,1,0,0,0,0,0,20210413,20210413
3256X,0,0,1,0,0,0,0,20210414,20210414
3257J,0,0,0,1,0,0,0,20210415,20210415
3258V,0,0,0,0,1,0,0,20210416,20210416
3259S,0,0,0,0,0,1,0,20210417,20210417
3260D,0,0,0,0,0,0,1,20210418,20210418
3261L,1,0,0,0,0,0,0,20210419,20210419
3262M,0,1,0,0,0,0,0,20210420,20210420
3263X,0,0,1,0,0,0,0,20210421,20210421
3264J,0,0,0,1,0,0,0,20210422,20210422
3265V,0,0,0,0,1,0,0,20210423,20210423
3266S,0,0,0,0,0,1,0,20210424,20210424
3267D,0,0,0,0,0,0,1,20210425,20210425
3268L,1,0,0,0,0,0,0,20210426,20210426
3269M,0,1,0,0,0,0,0,20210427,20210427
3270X,0,0,1,0,0,0,0,20210428,20210428
3271J,0,0,0,1,0,0,0,20210429,20210429
3272V,0,0,0,0,1,0,0,20210430,20210430
3273S,0,0,0,0,0,1,0,20210501,20210501
3274D,0,0,0,0,0,0,1,20210502,20210502
3275L,1,0,0,0,0,0,0,20210503,20210503
3276M,0,1,0,0,0,0,0,20210504,20210504
3277X,0,0,1,0,0,0,0,20210505,20210505
3278J,0,0,0,1,0,0,0,20210506,20210506
3279V,0,0,0,0,1,0,0,20210507,20210507
4049X,0,0,1,0,0,0,0,20210407,20210407
4050J,0,0,0,1,0,0,0,20210408,20210408
4051V,0,0,0,0,1,0,0,20210409,20210409
4052S,0,0,0,0,0,1,0,20210410,20210410
4053D,0,0,0,0,0,0,1,20210411,20210411
4054L,1,0,0,0,0,0,0,20210412,20210412
4055M,0,1,0,0,0,0,0,20210413,20210413
4056X,0,0,1,0,0,0,0,20210414,20210414
4057J,0,0,0,1,0,0,0,20210415,20210415
4058V,0,0,0,0,1,0,0,20210416,20210416
4059S,0,0,0,0,0,1,0,20210417,20210417
4060D,0,0,0,0,0,0,1,20210418,20210418
4061L,1,0,0,0,0,0,0,20210419,20210419
4062M,0,1,0,0,0,0,0,20210420,20210420
4063X,0,0,1,0,0,0,0,20210421,20210421
4064J,0,0,0,1,0,0,0,20210422,20210422
4065V,0,0,0,0,1,0,0,20210423,20210423
4066S,0,0,0,0,0,1,0,20210424,20210424
4067D,0,0,0,0,0,0,1,20210425,20210425
4068L,1,0,0,0,0,0,0,20210426,20210426
4069M,0,1,0,0,0,0,0,20210427,20210427
4070X,0,0,1,0,0,0,0,20210428,20210428
4071J,0,0,0,1,0,0,0,20210429,20210429
4072V,0,0,0,0,1,0,0,20210430,20210430
4073S,0,0,0,0,0,1,0,20210501,20210501
4074D,0,0,0,0,0,0,1,20210502,20210502
4075L,1,0,0,0,0,0,0,20210503,20210503
4076M,0,1,0,0,0,0,0,20210504,20210504
4077X,0,0,1,0,0,0,0,20210505,20210505
4078J,0,0,0,1,0,0,0,20210506,20210506
4079V,0,0,0,0,1,0,0,20210507,20210507
4149X,0,0,1,0,0,0,0,20210407,20210407
4150J,0,0,0,1,0,0,0,20210408,20210408
4151V,0,0,0,0,1,0,0,20210409,20210409
4152S,0,0,0,0,0,1,0,20210410,20210410
4153D,0,0,0,0,0,0,1,20210411,20210411
4154L,1,0,0,0,0,0,0,20210412,20210412
4155M,0,1,0,0,0,0,0,20210413,20210413
4156X,0,0,1,0,0,0,0,20210414,20210414
4157J,0,0,0,1,0,0,0,20210415,20210415
4158V,0,0,0,0,1,0,0,20210416,20210416
4159S,0,0,0,0,0,1,0,20210417,20210417
4160D,0,0,0,0,0,0,1,20210418,20210418
4161L,1,0,0,0,0,0,0,20210419,20210419
4162M,0,1,0,0,0,0,0,20210420,20210420
4163X,0,0,1,0,0,0,0,20210421,20210421
4164J,0,0,0,1,0,0,0,20210422,20210422
4165V,0,0,0,0,1,0,0,20210423,20210423
4166S,0,0,0,0,0,1,0,20210424,20210424
4167D,0,0,0,0,0,0,1,20210425,20210425
4168L,1,0,0,0,0,0,0,20210426,20210426
4169M,0,1,0,0,0,0,0,20210427,20210427
4170X,0,0,1,0,0,0,0,20210428,20210428
4171J,0,0,0,1,0,0,0,20210429,20210429
4172V,0,0,0,0,1,0,0,20210430,20210430
4173S,0,0,0,0,0,1,0,20210501,20210501
4174D,0,0,0,0,0,0,1,20210502,20210502
4175L,1,0,0,0,0,0,0,20210503,20210503
4176M,0,1,0,0,0,0,0,20210504,20210504
4177X,0,0,1,0,0,0,0,20210505,20210505
4178J,0,0,0,1,0,0,0,20210506,20210506
4179V,0,0,0,0,1,0,0,20210507,20210507
5049X,0,0,1,0,0,0,0,20210407,20210407
5050J,0,0,0,1,0,0,0,20210408,20210408
5051V,0,0,0,0,1,0,0,20210409,20210409
5052S,0,0,0,0,0,1,0,20210410,20210410
5053D,0,0,0,0,0,0,1,20210411,20210411
5054L,1,0,0,0,0,0,0,20210412,20210412
5055M,0,1,0,0,0,0,0,20210413,20210413
5056X,0,0,1,0,0,0,0,20210414,20210414
5057J,0,0,0,1,0,0,0,20210415,20210415
5058V,0,0,0,0,1,0,0,20210416,20210416
5059S,0,0,0,0,0,1,0,20210417,20210417
5060D,0,0,0,0,0,0,1,20210418,20210418
5061L,1,0,0,0,0,0,0,20210419,20210419
5062M,0,1,0,0,0,0,0,20210420,20210420
5063X,0,0,1,0,0,0,0,20210421,20210421
5064J,0,0,0,1,0,0,0,20210422,20210422
5065V,0,0,0,0,1,0,0,20210423,20210423
5066S,0,0,0,0,0,1,0,20210424,20210424
5067D,0,0,0,0,0,0,1,20210425,20210425
5068L,1,0,0,0,0,0,0,20210426,20210426
5069M,0,1,0,0,0,0,0,20210427,20210427
5070X,0,0,1,0,0,0,0,20210428,20210428
5071J,0,0,0,1,0,0,0,20210429,20210429
5072V,0,0,0,0,1,0,0,20210430,20210430
5073S,0,0,0,0,0,1,0,20210501,20210501
5074D,0,0,0,0,0,0,1,20210502,20210502
5075L,1,0,0,0,0,0,0,20210503,20210503
5076M,0,1,0,0,0,0,0,20210504,20210504
5077X,0,0,1,0,0,0,0,20210505,20210505
5078J,0,0,0,1,0,0,0,20210506,20210506
5079V,0,0,0,0,1,0,0,20210507,20210507
6049X,0,0,1,0,0,0,0,20210407,20210407
6050J,0,0,0,1,0,0,0,20210408,20210408
6051V,0,0,0,0,1,0,0,20210409,20210409
6052S,0,0,0,0,0,1,0,20210410,20210410
6053D,0,0,0,0,0,0,1,20210411,20210411
6054L,1,0,0,0,0,0,0,20210412,20210412
6055M,0,1,0,0,0,0,0,20210413,20210413
6056X,0,0,1,0,0,0,0,20210414,20210414
6057J,0,0,0,1,0,0,0,20210415,20210415
6058V,0,0,0,0,1,0,0,20210416,20210416
6059S,0,0,0,0,0,1,0,20210417,20210417
6060D,0,0,0,0,0,0,1,20210418,20210418
6061L,1,0,0,0,0,0,0,20210419,20210419
6062M,0,1,0,0,0,0,0,20210420,20210420
6063X,0,0,1,0,0,0,0,20210421,20210421
6064J,0,0,0,1,0,0,0,20210422,20210422
6065V,0,0,0,0,1,0,0,20210423,20210423
6066S,0,0,0,0,0,1,0,20210424,20210424
6067D,0,0,0,0,0,0,1,20210425,20210425
6068L,1,0,0,0,0,0,0,20210426,20210426
6069M,0,1,0,0,0,0,0,20210427,20210427
6070X,0,0,1,0,0,0,0,20210428,20210428
6071J,0,0,0,1,0,0,0,20210429,20210429
6072V,0,0,0,0,1,0,0,20210430,20210430
6073S,0,0,0,0,0,1,0,20210501,20210501
6074D,0,0,0,0,0,0,1,20210502,20210502
6075L,1,0,0,0,0,0,0,20210503,20210503
6076M,0,1,0,0,0,0,0,20210504,20210504
6077X,0,0,1,0,0,0,0,20210505,20210505
6078J,0,0,0,1,0,0,0,20210506,20210506
6079V,0,0,0,0,1,0,0,20210507,20210507
6149X,0,0,1,0,0,0,0,20210407,20210407
6150J,0,0,0,1,0,0,0,20210408,20210408
6151V,0,0,0,0,1,0,0,20210409,20210409
6152S,0,0,0,0,0,1,0,20210410,20210410
6153D,0,0,0,0,0,0,1,20210411,20210411
6154L,1,0,0,0,0,0,0,20210412,20210412
6155M,0,1,0,0,0,0,0,20210413,20210413
6156X,0,0,1,0,0,0,0,20210414,20210414
6157J,0,0,0,1,0,0,0,20210415,20210415
6158V,0,0,0,0,1,0,0,20210416,20210416
6159S,0,0,0,0,0,1,0,20210417,20210417
6160D,0,0,0,0,0,0,1,20210418,20210418
6161L,1,0,0,0,0,0,0,20210419,20210419
6162M,0,1,0,0,0,0,0,20210420,20210420
6163X,0,0,1,0,0,0,0,20210421,20210421
6164J,0,0,0,1,0,0,0,20210422,20210422
6165V,0,0,0,0,1,0,0,20210423,20210423
6166S,0,0,0,0,0,1,0,20210424,20210424
6167D,0,0,0,0,0,0,1,20210425,20210425
6168L,1,0,0,0,0,0,0,20210426,20210426
6169M,0,1,0,0,0,0,0,20210427,20210427
6170X,0,0,1,0,0,0,0,20210428,20210428
6171J,0,0,0,1,0,0,0,20210429,20210429
6172V,0,0,0,0,1,0,0,20210430,20210430
6173S,0,0,0,0,0,1,0,20210501,20210501
6174D,0,0,0,0,0,0,1,20210502,20210502
6175L,1,0,0,0,0,0,0,20210503,20210503
6176M,0,1,0,0,0,0,0,20210504,20210504
6177X,0,0,1,0,0,0,0,20210505,20210505
6178J,0,0,0,1,0,0,0,20210506,20210506
6179V,0,0,0,0,1,0,0,20210507,20210507
6249X,0,0,1,0,0,0,0,20210407,20210407
6250J,0,0,0,1,0,0,0,20210408,20210408
6251V,0,0,0,0,1,0,0,20210409,20210409
6252S,0,0,0,0,0,1,0,20210410,20210410
6253D,0,0,0,0,0,0,1,20210411,20210411
6254L,1,0,0,0,0,0,0,20210412,20210412
6255M,0,1,0,0,0,0,0,20210413,20210413
6256X,0,0,1,0,0,0,0,20210414,20210414
6257J,0,0,0,1,0,0,0,20210415,20210415
6258V,0,0,0,0,1,0,0,20210416,20210416
6259S,0,0,0,0,0,1,0,20210417,20210417
6260D,0,0,0,0,0,0,1,20210418,20210418
6261L,1,0,0,0,0,0,0,20210419,20210419
6262M,0,1,0,0,0,0,0,20210420,20210420
6263X,0,0,1,0,0,0,0,20210421,20210421
6264J,0,0,0,1,0,0,0,20210422,20210422
6265V,0,0,0,0,1,0,0,20210423,20210423
6266S,0,0,0,0,0,1,0,20210424,20210424
6267D,0,0,0,0,0,0,1,20210425,20210425
6268L,1,0,0,0,0,0,0,20210426,20210426
6269M,0,1,0,0,0,0,0,20210427,20210427
6270X,0,0,1,0,0,0,0,20210428,20210428
6271J,0,0,0,1,0,0,0,20210429,20210429
6272V,0,0,0,0,1,0,0,20210430,20210430
6273S,0,0,0,0,0,1,0,20210501,20210501
6274D,0,0,0,0,0,0,1,20210502,20210502
6275L,1,0,0,0,0,0,0,20210503,20210503
6276M,0,1,0,0,0,0,0,20210504,20210504
6277X,0,0,1,0,0,0,0,20210505,20210505
6278J,0,0,0,1,0,0,0,20210506,20210506
6279V,0,0,0,0,1,0,0,20210507,20210507
7049X,0,0,1,0,0,0,0,20210407,20210407
7050J,0,0,0,1,0,0,0,20210408,20210408
7051V,0,0,0,0,1,0,0,20210409,20210409
7052S,0,0,0,0,0,1,0,20210410,20210410
7053D,0,0,0,0,0,0,1,20210411,20210411
7054L,1,0,0,0,0,0,0,20210412,20210412
7055M,0,1,0,0,0,0,0,20210413,20210413
7056X,0,0,1,0,0,0,0,20210414,20210414
7057J,0,0,0,1,0,0,0,20210415,20210415
7058V,0,0,0,0,1,0,0,20210416,20210416
7059S,0,0,0,0,0,1,0,20210417,20210417
7060D,0,0,0,0,0,0,1,20210418,20210418
7061L,1,0,0,0,0,0,0,20210419,20210419
7062M,0,1,0,0,0,0,0,20210420,20210420
7063X,0,0,1,0,0,0,0,20210421,20210421
7064J,0,0,0,1,0,0,0,20210422,20210422
7065V,0,0,0,0,1,0,0,20210423,20210423
7066S,0,0,0,0,0,1,0,20210424,20210424
7067D,0,0,0,0,0,0,1,20210425,20210425
7068L,1,0,0,0,0,0,0,20210426,20210426
7069M,0,1,0,0,0,0,0,20210427,20210427
7070X,0,0,1,0,0,0,0,20210428,20210428
7071J,0,0,0,1,0,0,0,20210429,20210429
7072V,0,0,0,0,1,0,0,20210430,20210430
7073S,0,0,0,0,0,1,0,20210501,20210501
7074D,0,0,0,0,0,0,1,20210502,20210502
7075L,1,0,0,0,0,0,0,20210503,20210503
7076M,0,1,0,0,0,0,0,20210504,20210504
7077X,0,0,1,0,0,0,0,20210505,20210505
7078J,0,0,0,1,0,0,0,20210506,20210506
7079V,0,0,0,0,1,0,0,20210507,20210507
