id_linia, id_estacio
R1, 72300
R1, 72301
R1, 72302
R1, 72303
R1, 72305
R1, 71801
R1, 78805
R1, 78804
R1, 79009
R1, 79403
R1, 79404
R1, 79405
R1, 79406
R1, 79407
R1, 79408
R1, 79409
R1, 79410
R1, 79412
R1, 79500
R1, 79501
R1, 79502
R1, 79600
R1, 79601
R1, 79602
R1, 79603
R1, 79604
R1, 79608
R1, 79605
R1, 79606
R1, 79607
R1, 79200
R2, 71705
R2, 71706
R2, 71709
R2, 71707
R2, 71708
R2, 71801
R2, 71802
R2, 79009
R2, 79004
R2, 79005
R2, 79011
R2, 79006
R2, 79007
R2, 79100
R2N, 72400
R2N, 71707
R2N, 71708
R2N, 71801
R2N, 71802
R2N, 79009
R2N, 79004
R2N, 79005
R2N, 79011
R2N, 79006
R2N, 79007
R2N, 79100
R2N, 79109
R2N, 79101
R2N, 79102
R2N, 79103
R2N, 79104
R2N, 79105
R2N, 79106
R2N, 79107
R2N, 79200
R2S, 71600
R2S, 71601
R2S, 71602
R2S, 71603
R2S, 71604
R2S, 71700
R2S, 71701
R2S, 71703
R2S, 71704
R2S, 71705
R2S, 71705
R2S, 71706
R2S, 71709
R2S, 71707
R2S, 71708
R2S, 71801
R2S, 71802
R2S, 79400
R3, 72305
R3, 71801
R3, 78805
R3, 78804
R3, 78806
R3, 78802
R3, 78801
R3, 78800
R3, 77002
R3, 77003
R3, 77004
R3, 77006
R3, 77100
R3, 77102
R3, 77103
R3, 77104
R3, 77105
R3, 77106
R3, 77107
R3, 77109
R3, 77110
R3, 77111
R3, 77112
R3, 77113
R3, 77114
R3, 77200
R3, 77301
R3, 77003
R3, 77304
R3, 77305
R3, 77306
R3, 77307
R3, 77309
R4, 71600
R4, 72201
R4, 72202
R4, 72203
R4, 72204
R4, 72205
R4, 72206
R4, 72207
R4, 72208
R4, 72209
R4, 72210
R4, 72211
R4, 72300
R4, 72301
R4, 72302
R4, 72303
R4, 72305
R4, 71801
R4, 78805
R4, 78804
R4, 78806
R4, 78802
R4, 78801
R4, 78800
R4, 78708
R4, 78707
R4, 78703
R4, 78704
R4, 78709
R4, 78710
R4, 78700
R4, 78610
R4, 78609
R4, 78607
R4, 78606
R4, 78605
R4, 78604
R4, 78600
R7, 78802
R7, 78801
R7, 78800
R7, 78708
R7, 78707
R7, 78706
R7, 72503
R8, 72209
R8, 72210
R8, 72501
R8, 72502
R8, 72503
R8, 79006
R8, 79007
R8, 79100