estacio_id,nom,adreca
71600,"SANT VICENÇ DE CALDERS","CALLE ESTACIO FERROCARRIL, S/N, Vendrell, El"
71601,CALAFELL,"CALLE ESTACION FERROCARRIL, S/N, Calafell"
71602,"SEGUR DE CALAFELL","CALLE BAIXADOR, S/N, Calafell"
71603,CUNIT,"CALLE ESTACION DE FERROCARRIL, S/N, Cunit"
71604,CUBELLES,"CALLE ESTACION DE FERROCARRIL, S/N, Cubelles"
71700,"VILANOVA I LA GELTRU","PLAZA DE EDUARD MARISTANY, S/N, Vilanova i la Geltrú"
71701,SITGES,"PLAZA EDUARD MARISTANY, S/N, Sitges"
71703,GARRAF,"PLAÇA ESTACIO FERROCARRIL, S/N, Sitges"
71704,"PLATJA DE CASTELLDEFELS","PASEO DEL FERROCARRIL, S/N, Castelldefels"
71705,CASTELLDEFELS,"PLAÇA ESTACIO FERROCARRIL, S/N, Castelldefels"
71706,GAVA,"CALLE SALAMANCA, 1, Gavà"
71707,"EL PRAT DE LLOBREGAT","AVINGUDA ENRIC PRAT DE LA RIBA, S/N, Prat de Llobregat, El"
71708,BELLVITGE,"AVENIDA VILANOVA, S/N, Hospitalet de Llobregat, L'"
71709,VILADECANS,"FINAL CARRER FERROCARRIL, S/N, Viladecans"
71801,BARCELONA-SANTS,"PLAÇA DELS PAISOS CATALANS, 1 - 7, Barcelona"
71802,"BARCELONA-PASSEIG DE GRACIA","PASSEIG DE GRACIA - ESQUINA ARAGO, S/N, Barcelona"
72201,"EL VENDRELL","CALLE JAUME CARNER, S/N, Vendrell, El"
72202,L'ARBOÇ,"CALLE DEL FERROCARRIL, S/N, Arboç, L'"
72203,"ELS MONJOS","LLANO PLA DE LA ESTACIO, S/N, Santa Margarida i els Monjos"
72204,"VILAFRANCA DEL PENEDES","PLAÇA DE L'ESTACIO, 4, Vilafranca del Penedès"
72205,"LA GRANADA","CALLE ESTACIO FERROCARRIL, S/N, Granada, La"
72206,LAVERN-SUBIRATS,"CALLE ESTACIO DE LAVERN, S/N, Subirats"
72207,"SANT SADURNI D'ANOIA","JOAN SALA TUBELLA ESTACIO, S/N, Sant Sadurní d'Anoia"
72208,GELIDA,"POL. IND. LA GELIDENSE - ESTACIO FERROCARRIL, S/N, Gelida"
72209,MARTORELL,"CALLE COMERCIO, 2, Martorell"
72210,CASTELLBISBAL,"CALLE ESTACION DE FERROCARRIL, S/N, Castellbisbal"
72211,"EL PAPIOL","CARRETERA C-1413A - ESTACION FERROCARRIL, S/N, Papiol, El"
72300,"MOLINS DE REI","PLAÇA L'ESTACIO FERROCARRIL, 1, Molins de Rei"
72301,"SANT FELIU DE LLOBREGAT","CALLE ESTACIO, S/N, Sant Feliu de Llobregat"
72302,"SANT JOAN DESPI","CALLE ESTACIO FERROCARRIL, S/N, Sant Joan Despí"
72303,CORNELLA,"PLAZA ESTACION FERROCARRIL, S/N, Cornellà de Llobregat"
72305,"L'HOSPITALET DE LLOBREGAT","CALLE AVINGUDA JOSEP TARRADELLAS, 192, Hospitalet de Llobregat, L'"
72400,AEROPORT,"ZONA AEROPUERTO, S/N, Prat de Llobregat, El"
72501,RUBI,"AVENIDA DE LA ELECTRICITAT, S/N, Rubí"
72502,"SANT CUGAT DEL VALLES","CALLE RONDA DEL NORD, S/N, Sant Cugat del Vallès"
72503,"CERDANYOLA UNIVERSITAT","CARRETERA B-30 - UNIVERSITAT AUTONOMA DE BARCELONA - ESTACION FERROCARRIL, S/N, Cerdanyola del Vallès"
77002,MONTCADA-RIPOLLET,"CARRER MARIA FORTUNY, S/N, Montcada i Reixac"
77003,"SANTA PERPETUA DE MOGODA","CALLE ESTACION FERROCARRIL, 3, Santa Perpètua de Mogoda"
77004,"MOLLET-SANTA ROSA","CALLE JOAN MARAGALL, S/N, Mollet del Vallès"
77005,"PARETS DEL VALLES","AVENIDA ESTACION FERROCARRIL, S/N, Parets del Vallès"
77006,GRANOLLERS-CANOVELLES,"CALLE JOAN MARAGALL, S/N, Granollers"
77100,"LES FRANQUESES DEL VALLES","CARRETERA DE RIBAS, 122, Franqueses del Vallès, Les"
77102,"LA GARRIGA","CALLE RONDA DE CARRIL, 47, Garriga, La"
77103,FIGARO,"CALLE ESTACION DE FERROCARRIL, S/N, Figaró-Montmany"
77104,"SANT MARTI DE CENTELLES","CALLE ESTACIO DE FERROCARRIL, S/N, Sant Martí de Centelles"
77105,CENTELLES,"CALLE MARQUES DE PEÑAPLATA, S/N, Centelles"
77106,"BALENYA-ELS HOSTALETS","CALLE ESTACION DE FERROCARRIL, S/N, Balenyà"
77107,BALENYA-TONA-SEVA,"CALLE BISBE PERELLO, S/N, Seva"
77109,VIC,"PLAZA DEL CENTENARI, 4, Vic"
77110,MANLLEU,"CARRER D' EN SANTIAGO RUSIÑOL, 73 - PASSEIG L'ESTACIO FERROCARRIL, S/N, Manlleu"
77111,TORELLO,"PLAÇA DE L'ESTACIO, S/N, Torelló"
77112,BORGONYA,"CARRETERA BV-5626 - CARRER BORGONYA, S/N, Sant Vicenç de Torelló"
77113,"SANT QUIRZE DE BESORA-MONTESQUIU","CALLE ESTACIO FERROCARRIL, 2, Sant Quirze de Besora"
77114,"LA FARGA DE BEBIE","CARRETERA N-152A - ESTACION FERROCARRIL, S/N, Llosses, Les"
77200,RIPOLL,"CALLE PROGRESO, S/N, Ripoll"
77301,CAMPDEVANOL,"PLAÇA ESTACIO FERROCARRIL, 1, Campdevànol"
77303,"RIBES DE FRESER","CARRETERA N-260 - ESTACION FERROCARRIL, S/N, Ribes de Freser"
77304,PLANOLES,"CARRETERA GIV-4015 - ESTACION FERROCARRIL, S/N, Planoles"
77305,TOSES,"CARRETERA GIV-4016 - ESTACION FERROCARRIL, 8, Toses"
77306,"LA MOLINA","CARRER L'ESTACIO FERROCARRIL, 3, Alp"
77307,URTX-ALP,"CARRETERA GIV-4082 - ESTACION FERROCARRIL, S/N, Alp"
77309,PUIGCERDA,"PLAÇA DE L'ESTACIO FERROCARRIL, 5, Puigcerdà"
78600,MANRESA,"CARRETERA MANRESA A ABRERA, S/N, Manresa"
78604,"SANT VICENÇ DE CASTELLET","PASEO DE PAU CASALLS, S/N, Sant Vicenç de Castellet"
78605,"CASTELLBELL I EL VILAR-MONISTROL DE MONTSERRAT","CALLE CAMINO DE LA ESTACION, S/N, Castellbell i el Vilar"
78606,VACARISSES,"CALLE PETUNIA, 29, Vacarisses"
78607,VACARISSES-TORREBLANCA,"PASEO DE LA ESTACION DE TORREBLANCA, S/N, Vacarisses"
78609,VILADECAVALLS,"CAMINO DE LA ESTACION, S/N, Viladecavalls"
78610,"SANT MIQUEL DE GONTERES","CALLE PASEO DE LOS EUCALIPTUS, S/N, Viladecavalls"
78700,TERRASSA,"PLAÇA DE L'ESTACIO DEL NORTE, S/N, Terrassa"
78703,"SABADELL SUD","CALLE COMERCIO, S/N, Sabadell"
78704,"SABADELL CENTRE","CALLE ALFONSO, S/N, Sabadell"
78705,"BARBERA DEL VALLES","PLAZA DE ESPANYA, S/N, Barberà del Vallès"
78706,"CERDANYOLA DEL VALLES","AVENIDA PRIMAVERA, S/N, Cerdanyola del Vallès"
78707,"MONTCADA I REIXAC-SANTA MARIA","PASSATGE MANRESA, S/N, Montcada i Reixac"
78708,"MONTCADA I REIXAC-MANRESA","CARRETERA VELLA, S/N, Montcada i Reixac"
78709,"SABADELL NORD","PLAZA DE ESPAÑA, S/N, Sabadell"
78710,"TERRASSA EST","CARRER D'?LABA, S/N, Terrassa"
78800,MONTCADA-BIFURCACIO,"CARRER BATERIA, S/N, Montcada i Reixac"
78801,"TORRE DEL BARO","CALLE VALCIVERA, S/N, Barcelona"
78802,"SANT ANDREU ARENAL","AVINGUDA MERIDIANA, 416, Barcelona"
78804,"ARC DE TRIOMF","PASSEIG SANT JOAN, S/N, Barcelona"
78805,"PLAÇA  DE CATALUNYA","PLAÇA DE CATALUNYA, S/N, Barcelona"
78806,"LA SAGRERA-MERIDIANA","AVINGUDA MERIDIANA, S/N, Barcelona"
79004,"BARCELONA-SANT ANDREU COMTAL","PLAÇA DE L'ESTACIO, S/N, Barcelona"
79005,"MONTCADA I REIXAC","CARRER GENERALITAT, 7, Montcada i Reixac"
79006,"MOLLET-SANT FOST","CALLE RONDA ORIENT, 1, Mollet del Vallès"
79007,MONTMELO,"CALLE MIQUEL BIADA, S/N, Montmeló"
79009,BARCELONA-CLOT-ARAGO,"PLAZA CANONGE RODO, S/N, Barcelona"
79011,"LA LLAGOSTA","CALLE ESTACIO FERROCARRIL, S/N, Llagosta, La"
79100,GRANOLLERS-CENTRE,"PLAÇA SERRAT I BONASTRE, S/N, Granollers"
79101,CARDEDEU,"CALLE JAIME I, S/N, Cardedeu"
79102,"LLINARS DEL VALLES","CALLE MONSERRAT CULLEL, S/N, Llinars del Vallès"
79103,PALAUTORDERA,"CARRETERA LOCAL BV-5301, KM. 1, Santa Maria de Palautordera"
79104,"SANT CELONI","PLAÇA DE L'ESTACIO, S/N, Sant Celoni"
79105,GUALBA,"CALLE BARRIO DE LA ESTACIO, S/N, Gualba"
79106,"RIELLS I VIABREA-BREDA","CALLE MOSEN PERE RIBOT, S/N, Riells i Viabrea"
79107,HOSTALRIC,"CALLE BAJADA DE LA ESTACIO, S/N, Hostalric"
79109,"LES FRANQUESES-GRANOLLERS NORD","CALLE CARRER ARAGO, S/N, Franqueses del Vallès, Les"
79200,MAÇANET-MASSANES,"CARRETERA DE HOSTALRIC, KM 47, Maçanet de la Selva"
79400,"BARCELONA-ESTACIO DE FRANÇA","AVENIDA MARQUES DE ARGENTERA, S/N, Barcelona"
79403,"SANT ADRIA DE BESOS","AVENIDA EDUARD MARISTANY, S/N, Sant Adrià de Besòs"
79404,BADALONA,"PLAÇA ROCAI PI, 1, Badalona"
79405,MONTGAT,"CALLE MARINA, S/N, Montgat"
79406,MONTGAT-NORD,"CARRETERA NACIONAL N-II, S/N, Montgat"
79407,"EL MASNOU","CARRER MOSSEN JACINT VERDAGUER, 1, Masnou, El"
79408,OCATA,"CARRETERA N-II - ESTACION FERROCARRIL, S/N, Masnou, El"
79409,"PREMIA DE MAR","CALLE CAMI REAL, S/N, Premià de Mar"
79410,"VILASSAR DE MAR","CALLE SAN JAIME, S/N, Vilassar de Mar"
79412,"CABRERA DE MAR-VILASSAR DE MAR","AVENIDA DEL MARESME, 1, Vilassar de Mar"
79500,MATARO,"AVENIDA DEL MARESME, S/N, Mataró"
79501,"SANT ANDREU DE LLAVANERES","CARRETERA N-II - KM 651,5 - ESTACION FERROCARRIL, S/N, Sant Andreu de Llavaneres"
79502,"CALDES D'ESTRAC","CALLE EL CALLAO, S/N, Caldes d'Estrac"
79600,"ARENYS DE MAR","PLAYA CASSA, S/N, Arenys de Mar"
79601,"CANET DE MAR","CALLE DEL MAR, 11, Canet de Mar"
79602,"SANT POL DE MAR","PLAÇA DE L'ESTACIO, S/N, Sant Pol de Mar"
79603,CALELLA,"CALLE ASELMO CLAVE, S/N, Calella"
79604,"PINEDA DE MAR","PLAÇA ESTACIO FERROCARRIL, S/N, Pineda de Mar"
79605,"MALGRAT DE MAR","PASEO LEVANTE, 1, Malgrat de Mar"
79606,BLANES,"CALLE ESTACIO FERROCARRIL, S/N, Blanes"
79607,TORDERA,"AVENIDA DE SAN PEDRO, 91, Tordera"
79608,"SANTA SUSANNA","PASSEIG MARITIM, S/N, Santa Susanna"
