8800R1  ,05:32:00,05:32:00,79600,04, 2
8800R1  ,05:35:00,05:35:00,79502,05, 2
8800R1  ,05:39:00,05:39:00,79501,06, 3
8800R1  ,05:43:00,05:43:00,79500,07, 2
8800R1  ,05:48:00,05:48:00,79412,08, 1
8800R1  ,05:50:00,05:50:00,79410,09, 1
8800R1  ,05:53:00,05:53:00,79409,10, 3
8800R1  ,05:57:00,05:57:00,79408,11, 3
8800R1  ,05:59:00,05:59:00,79407,12, 1
8800R1  ,06:02:00,06:02:00,79406,13, 3
8800R1  ,06:04:00,06:04:00,79405,14, 1
8800R1  ,06:06:00,06:06:00,79404,15, 3
8800R1  ,06:10:00,06:10:00,79403,16, 1
8800R1  ,06:18:00,06:18:00,79009,17, 2
8800R1  ,06:23:00,06:23:00,78804,18, 3
8800R1  ,06:25:00,06:25:00,78805,19, 1
8800R1  ,06:30:00,06:30:00,71801,20, 3
8800R1  ,06:38:00,06:38:00,72305,21, 1
8800R1  ,06:42:00,06:42:00,72303,22, 2
8800R1  ,06:44:00,06:44:00,72302,23, 2
8800R1  ,06:46:00,06:46:00,72301,24, 2
8800R1  ,06:51:00,06:51:00,72300,25, 3
5613R1  ,08:38:00,08:38:00,72305,01, 1
5613R1  ,08:45:00,08:45:00,71801,02, 3
5613R1  ,08:50:00,08:50:00,78805,03, 2
5613R1  ,08:53:00,08:53:00,78804,04, 1
5613R1  ,08:57:00,08:57:00,79009,05, 3
5613R1  ,09:06:00,09:06:00,79403,06, 3
5613R1  ,09:09:00,09:09:00,79404,07, 2
5613R1  ,09:13:00,09:13:00,79405,08, 1
5613R1  ,09:15:00,09:15:00,79406,09, 3
5613R1  ,09:17:00,09:17:00,79407,10, 2
5613R1  ,09:20:00,09:20:00,79408,11, 3
5613R1  ,09:23:00,09:23:00,79409,12, 2
5613R1  ,09:27:00,09:27:00,79410,13, 3
5613R1  ,09:29:00,09:29:00,79412,14, 1
5613R1  ,09:33:00,09:33:00,79500,15, 3
5613R1  ,09:38:00,09:38:00,79501,16, 2
5613R1  ,09:41:00,09:41:00,79502,17, 3
5613R1  ,09:43:00,09:43:00,79600,18, 1
5617R1  ,09:38:00,09:38:00,72305,01, 3
5617R1  ,09:45:00,09:45:00,71801,02, 1
5617R1  ,09:50:00,09:50:00,78805,03, 3
5617R1  ,09:53:00,09:53:00,78804,04, 2
5617R1  ,09:57:00,09:57:00,79009,05, 3
5617R1  ,10:06:00,10:06:00,79403,06, 1
5617R1  ,10:09:00,10:09:00,79404,07, 3
5617R1  ,10:13:00,10:13:00,79405,08, 1
5617R1  ,10:15:00,10:15:00,79406,09, 2
5617R1  ,10:17:00,10:17:00,79407,10, 2
5617R1  ,10:20:00,10:20:00,79408,11, 2
5617R1  ,10:23:00,10:23:00,79409,12, 1
5617R1  ,10:27:00,10:27:00,79410,13, 1
5617R1  ,10:29:00,10:29:00,79412,14, 3
5617R1  ,10:33:00,10:33:00,79500,15, 2
5617R1  ,10:38:00,10:38:00,79501,16, 3
5617R1  ,10:41:00,10:41:00,79502,17, 1
5617R1  ,10:43:00,10:43:00,79600,18, 1
5617R1  ,10:48:00,10:48:00,79601,19, 1
5617R1  ,10:52:00,10:52:00,79602,20, 2
5617R1  ,10:58:00,10:58:00,79603,21, 1
5617R1  ,11:03:00,11:03:00,79604,22, 2
5617R1  ,11:06:00,11:06:00,79608,23, 3
5617R1  ,11:09:00,11:09:00,79605,24, 2
5617R1  ,11:15:00,11:15:00,79606,25, 2
5617R1  ,11:22:00,11:22:00,79607,26, 3
5617R1  ,11:29:00,11:29:00,79200,27, 3
5623R1  ,11:08:00,11:08:00,72305,01, 3
5623R1  ,11:15:00,11:15:00,71801,02, 3
5623R1  ,11:20:00,11:20:00,78805,03, 2
5623R1  ,11:23:00,11:23:00,78804,04, 2
5623R1  ,11:27:00,11:27:00,79009,05, 1
5623R1  ,11:36:00,11:36:00,79403,06, 3
5623R1  ,11:39:00,11:39:00,79404,07, 2
5623R1  ,11:43:00,11:43:00,79405,08, 3
5623R1  ,11:45:00,11:45:00,79406,09, 2
5623R1  ,11:47:00,11:47:00,79407,10, 2
5623R1  ,11:50:00,11:50:00,79408,11, 2
5623R1  ,11:53:00,11:53:00,79409,12, 2
5623R1  ,11:57:00,11:57:00,79410,13, 1
5623R1  ,11:59:00,11:59:00,79412,14, 3
5623R1  ,12:03:00,12:03:00,79500,15, 1
5623R1  ,12:08:00,12:08:00,79501,16, 2
5623R1  ,12:11:00,12:11:00,79502,17, 2
5623R1  ,12:13:00,12:13:00,79600,18, 1
5623R1  ,12:18:00,12:18:00,79601,19, 1
5623R1  ,12:23:00,12:23:00,79602,20, 2
5623R1  ,12:28:00,12:28:00,79603,21, 1
5623R1  ,12:33:00,12:33:00,79604,22, 3
5623R1  ,12:36:00,12:36:00,79608,23, 3
5623R1  ,12:39:00,12:39:00,79605,24, 1
5623R1  ,12:44:00,12:44:00,79606,25, 3
8830R1  ,13:03:00,13:03:00,79500,01, 1
8830R1  ,13:07:00,13:07:00,79412,02, 1
8830R1  ,13:09:00,13:09:00,79410,03, 2
8830R1  ,13:12:00,13:12:00,79409,04, 3
8830R1  ,13:16:00,13:16:00,79408,05, 2
8830R1  ,13:18:00,13:18:00,79407,06, 1
8830R1  ,13:21:00,13:21:00,79406,07, 3
8830R1  ,13:23:00,13:23:00,79405,08, 2
8830R1  ,13:25:00,13:25:00,79404,09, 3
8830R1  ,13:29:00,13:29:00,79403,10, 1
8830R1  ,13:39:00,13:39:00,79009,11, 2
8830R1  ,13:44:00,13:44:00,78804,12, 3
8830R1  ,13:46:00,13:46:00,78805,13, 1
8830R1  ,13:51:00,13:51:00,71801,14, 2
8830R1  ,13:59:00,13:59:00,72305,15, 3
8830R1  ,14:03:00,14:03:00,72303,16, 2
8830R1  ,14:05:00,14:05:00,72302,17, 2
8830R1  ,14:07:00,14:07:00,72301,18, 2
8830R1  ,14:12:00,14:12:00,72300,19, 2
5138R2S ,21:59:00,21:59:00,71600,06, 2
5138R2S ,22:04:00,22:04:00,71601,07, 2
5138R2S ,22:07:00,22:07:00,71602,08, 1
5138R2S ,22:10:00,22:10:00,71603,09, 3
5138R2S ,22:13:00,22:13:00,71604,10, 1
5138R2S ,22:17:00,22:17:00,71700,11, 1
5138R2S ,22:24:00,22:24:00,71701,12, 2
5138R2S ,22:36:00,22:36:00,71704,13, 3
5138R2S ,22:39:00,22:39:00,71705,14, 1
5138R2S ,22:42:00,22:42:00,71706,15, 1
5138R2S ,22:46:00,22:46:00,71709,16, 1
5138R2S ,22:51:00,22:51:00,71707,17, 1
5138R2S ,22:56:00,22:56:00,71708,18, 1
5138R2S ,23:02:00,23:02:00,71801,19, 2
5138R2S ,23:08:00,23:08:00,71802,20, 2
5509R2S ,07:58:00,07:58:00,71802,02, 2
5509R2S ,08:04:00,08:04:00,71801,03, 3
5509R2S ,08:21:00,08:21:00,71706,04, 2
5509R2S ,08:25:00,08:25:00,71705,05, 1
5509R2S ,08:37:00,08:37:00,71701,06, 3
5509R2S ,08:44:00,08:44:00,71700,07, 1
5509R2S ,08:50:00,08:50:00,71604,08, 3
5509R2S ,08:54:00,08:54:00,71603,09, 3
5509R2S ,08:57:00,08:57:00,71602,10, 3
5509R2S ,09:00:00,09:00:00,71601,11, 3
5509R2S ,09:06:00,09:06:00,71600,12, 2
5510R2S ,08:38:00,08:38:00,71700,01, 3
5510R2S ,08:44:00,08:44:00,71701,02, 1
5510R2S ,08:53:00,08:53:00,71703,03, 1
5510R2S ,08:58:00,08:58:00,71704,04, 1
5510R2S ,09:01:00,09:01:00,71705,05, 3
5510R2S ,09:05:00,09:05:00,71706,06, 1
5510R2S ,09:08:00,09:08:00,71709,07, 3
5510R2S ,09:12:00,09:12:00,71707,08, 2
5510R2S ,09:18:00,09:18:00,71708,09, 3
5510R2S ,09:25:00,09:25:00,71801,10, 3
5510R2S ,09:31:00,09:31:00,71802,11, 3
8544R2  ,19:24:00,19:24:00,71705,01, 3
8544R2  ,19:27:00,19:27:00,71706,02, 3
8544R2  ,19:30:00,19:30:00,71709,03, 3
8544R2  ,19:34:00,19:34:00,71707,04, 2
8544R2  ,19:40:00,19:40:00,71708,05, 2
8544R2  ,19:47:00,19:47:00,71801,06, 2
8544R2  ,19:53:00,19:53:00,71802,07, 2
8544R2  ,19:58:00,19:58:00,79009,08, 3
8544R2  ,20:03:00,20:03:00,79004,09, 3
8544R2  ,20:10:00,20:10:00,79005,10, 2
8544R2  ,20:13:00,20:13:00,79011,11, 3
8544R2  ,20:16:00,20:16:00,79006,12, 2
8544R2  ,20:20:00,20:20:00,79007,13, 3
8544R2  ,20:26:00,20:26:00,79100,14, 2
5402R2N ,06:08:00,06:08:00,72400,01, 2
5402R2N ,06:15:00,06:15:00,71707,02, 1
5402R2N ,06:21:00,06:21:00,71708,03, 1
5402R2N ,06:28:00,06:28:00,71801,04, 1
5402R2N ,06:35:00,06:35:00,71802,05, 3
5402R2N ,06:39:00,06:39:00,79009,06, 3
5402R2N ,06:44:00,06:44:00,79004,07, 2
5402R2N ,06:51:00,06:51:00,79005,08, 1
5402R2N ,06:54:00,06:54:00,79011,09, 1
5402R2N ,06:57:00,06:57:00,79006,10, 2
5402R2N ,07:01:00,07:01:00,79007,11, 1
5402R2N ,07:06:00,07:06:00,79100,12, 1
5402R2N ,07:10:00,07:10:00,79109,13, 3
5402R2N ,07:15:00,07:15:00,79101,14, 2
5402R2N ,07:18:00,07:18:00,79102,15, 2
5402R2N ,07:24:00,07:24:00,79103,16, 3
5402R2N ,07:28:00,07:28:00,79104,17, 1
5434R2N ,14:08:00,14:08:00,72400,01, 2
5434R2N ,14:15:00,14:15:00,71707,02, 2
5434R2N ,14:21:00,14:21:00,71708,03, 2
5434R2N ,14:28:00,14:28:00,71801,04, 2
5434R2N ,14:35:00,14:35:00,71802,05, 1
5434R2N ,14:39:00,14:39:00,79009,06, 1
5434R2N ,14:44:00,14:44:00,79004,07, 2
5434R2N ,14:51:00,14:51:00,79005,08, 2
5434R2N ,14:54:00,14:54:00,79011,09, 3
5434R2N ,14:57:00,14:57:00,79006,10, 1
5434R2N ,15:01:00,15:01:00,79007,11, 3
5434R2N ,15:06:00,15:06:00,79100,12, 2
5434R2N ,15:10:00,15:10:00,79109,13, 2
5434R2N ,15:15:00,15:15:00,79101,14, 1
5434R2N ,15:18:00,15:18:00,79102,15, 2
5434R2N ,15:24:00,15:24:00,79103,16, 1
5434R2N ,15:28:00,15:28:00,79104,17, 2
5333R3  ,19:37:00,19:37:00,72305,01, 2
5333R3  ,19:44:00,19:44:00,71801,02, 1
5333R3  ,19:49:00,19:49:00,78805,03, 3
5333R3  ,19:52:00,19:52:00,78804,04, 3
5333R3  ,19:57:00,19:57:00,78806,05, 3
5333R3  ,20:00:00,20:00:00,78802,06, 1
5333R3  ,20:03:00,20:03:00,78801,07, 2
5333R3  ,20:05:00,20:05:00,78800,08, 1
5333R3  ,20:10:00,20:10:00,77002,09, 1
5333R3  ,20:13:00,20:13:00,77003,10, 2
5333R3  ,20:15:00,20:15:00,77004,11, 3
5333R3  ,20:20:00,20:20:00,77005,12, 2
5333R3  ,20:27:00,20:27:00,77006,13, 3
5306R3  ,05:48:00,05:48:00,77102,01, 2
5306R3  ,05:53:00,05:53:00,77100,02, 1
5306R3  ,05:56:00,05:56:00,77006,03, 1
5306R3  ,06:04:00,06:04:00,77005,04, 1
5306R3  ,06:08:00,06:08:00,77004,05, 2
5306R3  ,06:11:00,06:11:00,77003,06, 2
5306R3  ,06:14:00,06:14:00,77002,07, 1
5306R3  ,06:20:00,06:20:00,78800,08, 3
5306R3  ,06:22:00,06:22:00,78801,09, 2
5306R3  ,06:25:00,06:25:00,78802,10, 2
5306R3  ,06:27:00,06:27:00,78806,11, 3
5306R3  ,06:33:00,06:33:00,78804,12, 1
5306R3  ,06:35:00,06:35:00,78805,13, 2
5306R3  ,06:40:00,06:40:00,71801,14, 2
5306R3  ,06:48:00,06:48:00,72305,15, 2
5363R3  ,06:14:00,06:14:00,72305,01, 1
5363R3  ,06:21:00,06:21:00,71801,02, 3
5363R3  ,06:26:00,06:26:00,78805,03, 3
5363R3  ,06:29:00,06:29:00,78804,04, 1
5363R3  ,06:35:00,06:35:00,78806,05, 2
5363R3  ,06:38:00,06:38:00,78802,06, 2
5363R3  ,06:42:00,06:42:00,78801,07, 1
5363R3  ,06:55:00,06:55:00,77004,08, 2
5363R3  ,06:59:00,06:59:00,77005,09, 2
5363R3  ,07:05:00,07:05:00,77006,10, 3
5363R3  ,07:13:00,07:13:00,77102,11, 1
5363R3  ,07:42:00,07:42:00,77109,12, 1
5363R3  ,07:56:00,07:56:00,77110,13, 2
5363R3  ,08:04:00,08:04:00,77111,14, 2
5363R3  ,08:13:00,08:13:00,77113,15, 2
5363R3  ,08:27:00,08:27:00,77200,16, 3
5363R3  ,08:36:00,08:36:00,77301,17, 1
5363R3  ,08:46:00,08:46:00,77303,18, 3
5363R3  ,09:05:00,09:05:00,77304,19, 2
5363R3  ,09:15:00,09:15:00,77305,20, 2
5363R3  ,09:44:00,09:44:00,77306,21, 3
5363R3  ,10:05:00,10:05:00,77307,22, 1
5363R3  ,10:25:00,10:25:00,77309,23, 1
5360R3  ,08:15:00,08:15:00,77309,02, 3
5360R3  ,08:25:00,08:25:00,77307,03, 3
5360R3  ,08:35:00,08:35:00,77306,04, 1
5360R3  ,09:05:00,09:05:00,77305,05, 3
5360R3  ,09:25:00,09:25:00,77304,06, 2
5360R3  ,09:45:00,09:45:00,77303,07, 2
5360R3  ,10:03:00,10:03:00,77301,08, 2
5360R3  ,10:09:00,10:09:00,77200,09, 2
5360R3  ,10:21:00,10:21:00,77113,10, 2
5360R3  ,10:28:00,10:28:00,77111,11, 3
5360R3  ,10:34:00,10:34:00,77110,12, 2
5360R3  ,10:40:00,10:40:00,77109,13, 2
5360R3  ,11:04:00,11:04:00,77102,14, 2
5360R3  ,11:14:00,11:14:00,77006,15, 2
5360R3  ,11:22:00,11:22:00,77005,16, 1
5360R3  ,11:26:00,11:26:00,77004,17, 3
5360R3  ,11:38:00,11:38:00,78801,18, 2
5360R3  ,11:41:00,11:41:00,78802,19, 1
5360R3  ,11:43:00,11:43:00,78806,20, 1
5360R3  ,11:49:00,11:49:00,78804,21, 1
5360R3  ,11:51:00,11:51:00,78805,22, 3
5360R3  ,11:56:00,11:56:00,71801,23, 2
5360R3  ,12:04:00,12:04:00,72305,24, 2
5367R3  ,07:41:00,07:41:00,72305,01, 2
5367R3  ,07:48:00,07:48:00,71801,02, 1
5367R3  ,07:53:00,07:53:00,78805,03, 2
5367R3  ,07:56:00,07:56:00,78804,04, 3
5367R3  ,08:01:00,08:01:00,78806,05, 2
5367R3  ,08:04:00,08:04:00,78802,06, 3
5367R3  ,08:07:00,08:07:00,78801,07, 3
5367R3  ,08:09:00,08:09:00,78800,08, 1
5367R3  ,08:18:00,08:18:00,77002,09, 3
5367R3  ,08:21:00,08:21:00,77003,10, 1
5367R3  ,08:23:00,08:23:00,77004,11, 1
5367R3  ,08:27:00,08:27:00,77005,12, 1
5367R3  ,08:36:00,08:36:00,77006,13, 2
5367R3  ,08:40:00,08:40:00,77100,14, 1
5367R3  ,08:49:00,08:49:00,77102,15, 1
5367R3  ,08:54:00,08:54:00,77103,16, 3
5367R3  ,08:59:00,08:59:00,77104,17, 1
5367R3  ,09:05:00,09:05:00,77105,18, 2
5367R3  ,09:08:00,09:08:00,77106,19, 1
5367R3  ,09:11:00,09:11:00,77107,20, 1
5367R3  ,09:23:00,09:23:00,77109,21, 3
5367R3  ,09:31:00,09:31:00,77110,22, 3
5367R3  ,09:37:00,09:37:00,77111,23, 3
5367R3  ,09:43:00,09:43:00,77112,24, 3
5367R3  ,09:48:00,09:48:00,77113,25, 2
5367R3  ,09:55:00,09:55:00,77114,26, 3
5367R3  ,10:05:00,10:05:00,77200,27, 1
5367R3  ,10:17:00,10:17:00,77301,28, 2
5367R3  ,10:27:00,10:27:00,77303,29, 3
5622R4  ,10:47:00,10:47:00,78600,16, 2
5622R4  ,10:57:00,10:57:00,78604,17, 2
5622R4  ,11:21:00,11:21:00,78700,18, 2
5622R4  ,11:25:00,11:25:00,78710,19, 1
5622R4  ,11:29:00,11:29:00,78709,20, 1
5622R4  ,11:32:00,11:32:00,78704,21, 1
5622R4  ,11:35:00,11:35:00,78703,22, 3
5622R4  ,11:39:00,11:39:00,78705,23, 2
5622R4  ,11:42:00,11:42:00,78706,24, 2
5622R4  ,11:46:00,11:46:00,78707,25, 3
5622R4  ,11:49:00,11:49:00,78708,26, 3
5622R4  ,11:52:00,11:52:00,78800,27, 3
5622R4  ,11:54:00,11:54:00,78801,28, 2
5622R4  ,11:57:00,11:57:00,78802,29, 1
5622R4  ,11:59:00,11:59:00,78806,30, 3
5622R4  ,12:05:00,12:05:00,78804,31, 3
5622R4  ,12:07:00,12:07:00,78805,32, 2
5622R4  ,12:12:00,12:12:00,71801,33, 1
5622R4  ,12:20:00,12:20:00,72305,34, 1
5016R4  ,07:54:00,07:54:00,78600,01, 1
5016R4  ,08:03:00,08:03:00,78604,02, 3
5016R4  ,08:10:00,08:10:00,78605,03, 1
5016R4  ,08:15:00,08:15:00,78606,04, 2
5016R4  ,08:18:00,08:18:00,78607,05, 2
5016R4  ,08:25:00,08:25:00,78609,06, 3
5016R4  ,08:27:00,08:27:00,78610,07, 2
5016R4  ,08:31:00,08:31:00,78700,08, 1
5016R4  ,08:35:00,08:35:00,78710,09, 3
5016R4  ,08:39:00,08:39:00,78709,10, 1
5016R4  ,08:42:00,08:42:00,78704,11, 2
5016R4  ,08:45:00,08:45:00,78703,12, 2
5016R4  ,08:48:00,08:48:00,78705,13, 1
5016R4  ,08:51:00,08:51:00,78706,14, 3
5016R4  ,08:53:00,08:53:00,78707,15, 2
5016R4  ,08:56:00,08:56:00,78708,16, 1
5016R4  ,08:59:00,08:59:00,78800,17, 2
5016R4  ,09:01:00,09:01:00,78801,18, 3
5016R4  ,09:04:00,09:04:00,78802,19, 3
5016R4  ,09:06:00,09:06:00,78806,20, 2
5016R4  ,09:12:00,09:12:00,78804,21, 2
5016R4  ,09:14:00,09:14:00,78805,22, 3
5016R4  ,09:19:00,09:19:00,71801,23, 1
5016R4  ,09:27:00,09:27:00,72305,24, 2
5016R4  ,09:30:00,09:30:00,72303,25, 2
5016R4  ,09:32:00,09:32:00,72302,26, 3
5016R4  ,09:34:00,09:34:00,72301,27, 2
5016R4  ,09:38:00,09:38:00,72300,28, 2
5016R4  ,09:42:00,09:42:00,72211,29, 3
5016R4  ,09:47:00,09:47:00,72210,30, 3
5016R4  ,09:51:00,09:51:00,72209,31, 1
5016R4  ,09:57:00,09:57:00,72208,32, 1
5016R4  ,10:02:00,10:02:00,72207,33, 3
5016R4  ,10:05:00,10:05:00,72206,34, 3
5016R4  ,10:09:00,10:09:00,72205,35, 1
5016R4  ,10:13:00,10:13:00,72204,36, 3
5016R4  ,10:19:00,10:19:00,72203,37, 3
5016R4  ,10:24:00,10:24:00,72202,38, 3
5016R4  ,10:29:00,10:29:00,72201,39, 3
5016R4  ,10:36:00,10:36:00,71600,40, 2
8006R4  ,06:19:00,06:19:00,71600,01, 3
8006R4  ,06:24:00,06:24:00,72201,02, 1
8006R4  ,06:30:00,06:30:00,72202,03, 3
8006R4  ,06:36:00,06:36:00,72203,04, 2
8006R4  ,06:40:00,06:40:00,72204,05, 3
8006R4  ,06:44:00,06:44:00,72205,06, 3
8006R4  ,06:48:00,06:48:00,72206,07, 2
8006R4  ,06:52:00,06:52:00,72207,08, 1
8006R4  ,06:57:00,06:57:00,72208,09, 3
8006R4  ,07:03:00,07:03:00,72209,10, 2
8006R4  ,07:09:00,07:09:00,72210,11, 2
8006R4  ,07:15:00,07:15:00,72211,12, 1
8006R4  ,07:19:00,07:19:00,72300,13, 2
8006R4  ,07:24:00,07:24:00,72301,14, 1
8006R4  ,07:27:00,07:27:00,72302,15, 1
8006R4  ,07:30:00,07:30:00,72303,16, 3
8006R4  ,07:33:00,07:33:00,72305,17, 3
8006R4  ,07:40:00,07:40:00,71801,18, 3
8006R4  ,07:45:00,07:45:00,78805,19, 2
8006R4  ,07:48:00,07:48:00,78804,20, 1
8006R4  ,07:54:00,07:54:00,78806,21, 1
8006R4  ,07:57:00,07:57:00,78802,22, 2
8006R4  ,08:01:00,08:01:00,78801,23, 3
8006R4  ,08:03:00,08:03:00,78800,24, 3
8006R4  ,08:06:00,08:06:00,78708,25, 3
8006R4  ,08:09:00,08:09:00,78707,26, 2
8006R4  ,08:11:00,08:11:00,78706,27, 3
8006R4  ,08:15:00,08:15:00,78705,28, 1
8006R4  ,08:18:00,08:18:00,78703,29, 2
8006R4  ,08:22:00,08:22:00,78704,30, 2
8006R4  ,08:25:00,08:25:00,78709,31, 2
8006R4  ,08:29:00,08:29:00,78710,32, 1
8006R4  ,08:32:00,08:32:00,78700,33, 2
8006R4  ,08:37:00,08:37:00,78610,34, 1
8006R4  ,08:39:00,08:39:00,78609,35, 1
8006R4  ,08:46:00,08:46:00,78607,36, 3
8006R4  ,08:49:00,08:49:00,78606,37, 2
8006R4  ,08:54:00,08:54:00,78605,38, 1
8006R4  ,09:00:00,09:00:00,78604,39, 2
8006R4  ,09:10:00,09:10:00,78600,40, 1
8024R4  ,11:16:00,11:16:00,72204,01, 3
8024R4  ,11:24:00,11:24:00,72207,02, 1
8024R4  ,11:29:00,11:29:00,72208,03, 3
8024R4  ,11:35:00,11:35:00,72209,04, 1
8024R4  ,11:41:00,11:41:00,72210,05, 2
8024R4  ,11:47:00,11:47:00,72211,06, 1
8024R4  ,11:51:00,11:51:00,72300,07, 3
8024R4  ,11:56:00,11:56:00,72301,08, 1
8024R4  ,11:59:00,11:59:00,72302,09, 1
8024R4  ,12:02:00,12:02:00,72303,10, 1
8024R4  ,12:05:00,12:05:00,72305,11, 2
8024R4  ,12:12:00,12:12:00,71801,12, 3
8024R4  ,12:17:00,12:17:00,78805,13, 2
8024R4  ,12:20:00,12:20:00,78804,14, 1
8024R4  ,12:25:00,12:25:00,78806,15, 3
8024R4  ,12:28:00,12:28:00,78802,16, 2
8024R4  ,12:31:00,12:31:00,78801,17, 2
8024R4  ,12:33:00,12:33:00,78800,18, 1
8024R4  ,12:36:00,12:36:00,78708,19, 3
8024R4  ,12:39:00,12:39:00,78707,20, 2
8024R4  ,12:41:00,12:41:00,78706,21, 2
8024R4  ,12:45:00,12:45:00,78705,22, 2
8024R4  ,12:48:00,12:48:00,78703,23, 1
8024R4  ,12:52:00,12:52:00,78704,24, 2
8024R4  ,12:55:00,12:55:00,78709,25, 2
8024R4  ,12:59:00,12:59:00,78710,26, 1
8026R4  ,11:21:00,11:21:00,71600,01, 2
8026R4  ,11:26:00,11:26:00,72201,02, 2
8026R4  ,11:32:00,11:32:00,72202,03, 2
8026R4  ,11:38:00,11:38:00,72203,04, 1
8026R4  ,11:42:00,11:42:00,72204,05, 3
8026R4  ,11:46:00,11:46:00,72205,06, 2
8026R4  ,11:50:00,11:50:00,72206,07, 1
8026R4  ,11:54:00,11:54:00,72207,08, 1
8026R4  ,11:59:00,11:59:00,72208,09, 2
8026R4  ,12:05:00,12:05:00,72209,10, 2
8026R4  ,12:11:00,12:11:00,72210,11, 3
8026R4  ,12:17:00,12:17:00,72211,12, 2
8026R4  ,12:21:00,12:21:00,72300,13, 3
8026R4  ,12:26:00,12:26:00,72301,14, 3
8026R4  ,12:29:00,12:29:00,72302,15, 3
8026R4  ,12:32:00,12:32:00,72303,16, 3
8026R4  ,12:35:00,12:35:00,72305,17, 1
8026R4  ,12:42:00,12:42:00,71801,18, 3
8026R4  ,12:47:00,12:47:00,78805,19, 2
8026R4  ,12:50:00,12:50:00,78804,20, 1
8026R4  ,12:55:00,12:55:00,78806,21, 1
8026R4  ,12:58:00,12:58:00,78802,22, 1
8026R4  ,13:01:00,13:01:00,78801,23, 3
8026R4  ,13:03:00,13:03:00,78800,24, 3
8026R4  ,13:06:00,13:06:00,78708,25, 3
8026R4  ,13:09:00,13:09:00,78707,26, 1
8026R4  ,13:11:00,13:11:00,78706,27, 3
8026R4  ,13:15:00,13:15:00,78705,28, 3
8026R4  ,13:18:00,13:18:00,78703,29, 3
8026R4  ,13:22:00,13:22:00,78704,30, 1
8026R4  ,13:25:00,13:25:00,78709,31, 1
8026R4  ,13:29:00,13:29:00,78710,32, 1
8026R4  ,13:32:00,13:32:00,78700,33, 2
8026R4  ,13:37:00,13:37:00,78610,34, 2
8026R4  ,13:39:00,13:39:00,78609,35, 3
8026R4  ,13:46:00,13:46:00,78607,36, 1
8026R4  ,13:50:00,13:50:00,78606,37, 2
8026R4  ,13:56:00,13:56:00,78605,38, 3
8026R4  ,14:04:00,14:04:00,78604,39, 2
8026R4  ,14:14:00,14:14:00,78600,40, 1
5800R7  ,06:53:00,06:53:00,72503,01, 1
5800R7  ,06:58:00,06:58:00,78706,02, 1
5800R7  ,07:00:00,07:00:00,78707,03, 3
5800R7  ,07:03:00,07:03:00,78708,04, 2
5800R7  ,07:06:00,07:06:00,78800,05, 3
5800R7  ,07:08:00,07:08:00,78801,06, 3
5800R7  ,07:11:00,07:11:00,78802,07, 1
5805R7  ,07:22:00,07:22:00,78802,01, 2
5805R7  ,07:25:00,07:25:00,78801,02, 2
5805R7  ,07:27:00,07:27:00,78800,03, 3
5805R7  ,07:30:00,07:30:00,78708,04, 1
5805R7  ,07:33:00,07:33:00,78707,05, 2
5805R7  ,07:35:00,07:35:00,78706,06, 2
5805R7  ,07:41:00,07:41:00,72503,07, 2
5829R7  ,12:24:00,12:24:00,78802,01, 1
5829R7  ,12:27:00,12:27:00,78801,02, 2
5829R7  ,12:29:00,12:29:00,78800,03, 2
5829R7  ,12:32:00,12:32:00,78708,04, 3
5829R7  ,12:35:00,12:35:00,78707,05, 1
5829R7  ,12:37:00,12:37:00,78706,06, 2
5829R7  ,12:43:00,12:43:00,72503,07, 3
5830R7  ,13:25:00,13:25:00,72503,01, 3
5830R7  ,13:30:00,13:30:00,78706,02, 1
5830R7  ,13:33:00,13:33:00,78707,03, 2
5830R7  ,13:36:00,13:36:00,78708,04, 2
5830R7  ,13:39:00,13:39:00,78800,05, 1
5830R7  ,13:41:00,13:41:00,78801,06, 3
5830R7  ,13:44:00,13:44:00,78802,07, 3
8608R8  ,10:18:00,10:18:00,72209,01, 3
8608R8  ,10:23:00,10:23:00,72210,02, 1
8608R8  ,10:32:00,10:32:00,72501,03, 1
8608R8  ,10:36:00,10:36:00,72502,04, 2
8608R8  ,10:39:00,10:39:00,72503,05, 1
8608R8  ,10:49:00,10:49:00,79006,06, 1
8608R8  ,10:53:00,10:53:00,79007,07, 2
8608R8  ,11:00:00,11:00:00,79100,08, 2
8644R8  ,12:32:00,12:32:00,79100,01, 2
8644R8  ,12:37:00,12:37:00,79007,02, 3
8644R8  ,12:40:00,12:40:00,79006,03, 1
8644R8  ,12:50:00,12:50:00,72503,04, 1
8644R8  ,12:55:00,12:55:00,72502,05, 2
8644R8  ,12:58:00,12:58:00,72501,06, 3
8644R8  ,13:07:00,13:07:00,72210,07, 2
8644R8  ,13:11:00,13:11:00,72209,08, 3
8656R8  ,18:32:00,18:32:00,79100,01, 1
8656R8  ,18:37:00,18:37:00,79007,02, 1
8656R8  ,18:40:00,18:40:00,79006,03, 3
8656R8  ,18:49:00,18:49:00,72503,04, 2
8656R8  ,18:53:00,18:53:00,72502,05, 2
8656R8  ,18:56:00,18:56:00,72501,06, 1
8656R8  ,19:04:00,19:04:00,72210,07, 1
8656R8  ,19:08:00,19:08:00,72209,08, 1
8622R8  ,17:18:00,17:18:00,72209,01, 3
8622R8  ,17:23:00,17:23:00,72210,02, 2
8622R8  ,17:32:00,17:32:00,72501,03, 2
8622R8  ,17:36:00,17:36:00,72502,04, 2
8622R8  ,17:40:00,17:40:00,72503,05, 1
8622R8  ,17:50:00,17:50:00,79006,06, 2
8622R8  ,17:54:00,17:54:00,79007,07, 1
8622R8  ,18:01:00,18:01:00,79100,08, 1
