5049X15130R2S ,06:15:00,06:15:00,71600,06
5049X15130R2S ,06:20:00,06:20:00,71601,07
5049X15130R2S ,06:23:00,06:23:00,71602,08
5049X15130R2S ,06:26:00,06:26:00,71603,09
5049X15130R2S ,06:29:00,06:29:00,71604,10
5049X15130R2S ,06:33:00,06:33:00,71700,11
5049X15130R2S ,06:40:00,06:40:00,71701,12
5049X15130R2S ,06:54:00,06:54:00,71705,13
5049X15130R2S ,06:58:00,06:58:00,71706,14
5049X15130R2S ,07:02:00,07:02:00,71709,15
5049X15130R2S ,07:07:00,07:07:00,71707,16
5049X15130R2S ,07:18:00,07:18:00,71801,17
5049X15130R2S ,07:24:00,07:24:00,71802,18
5049X15138R2S ,21:59:00,21:59:00,71600,06
5049X15138R2S ,22:04:00,22:04:00,71601,07
5049X15138R2S ,22:07:00,22:07:00,71602,08
5049X15138R2S ,22:10:00,22:10:00,71603,09
5049X15138R2S ,22:13:00,22:13:00,71604,10
5049X15138R2S ,22:17:00,22:17:00,71700,11
5049X15138R2S ,22:24:00,22:24:00,71701,12
5049X15138R2S ,22:36:00,22:36:00,71704,13
5049X15138R2S ,22:39:00,22:39:00,71705,14
5049X15138R2S ,22:42:00,22:42:00,71706,15
5049X15138R2S ,22:46:00,22:46:00,71709,16
5049X15138R2S ,22:51:00,22:51:00,71707,17
5049X15138R2S ,22:56:00,22:56:00,71708,18
5049X15138R2S ,23:02:00,23:02:00,71801,19
5049X15138R2S ,23:08:00,23:08:00,71802,20
5049X15139R2S ,18:47:00,18:47:00,79400,01
5049X15139R2S ,18:57:00,18:57:00,71802,02
5049X15139R2S ,19:02:00,19:02:00,71801,03
5049X15139R2S ,19:22:00,19:22:00,71706,04
5049X15139R2S ,19:25:00,19:25:00,71705,05
5049X15139R2S ,19:37:00,19:37:00,71701,06
5049X15139R2S ,19:44:00,19:44:00,71700,07
5049X15139R2S ,19:50:00,19:50:00,71604,08
5049X15139R2S ,19:54:00,19:54:00,71603,09
5049X15139R2S ,19:57:00,19:57:00,71602,10
5049X15139R2S ,20:00:00,20:00:00,71601,11
5049X15139R2S ,20:04:00,20:04:00,71600,12
5049X15151R2S ,06:47:00,06:47:00,79400,01
5049X15151R2S ,06:56:00,06:56:00,71802,02
5049X15151R2S ,07:02:00,07:02:00,71801,03
5049X15151R2S ,07:21:00,07:21:00,71706,04
5049X15151R2S ,07:25:00,07:25:00,71705,05
5049X15151R2S ,07:36:00,07:36:00,71701,06
5049X15151R2S ,07:43:00,07:43:00,71700,07
5049X15151R2S ,07:48:00,07:48:00,71604,08
5049X15151R2S ,07:52:00,07:52:00,71603,09
5049X15151R2S ,07:55:00,07:55:00,71602,10
5049X15151R2S ,07:58:00,07:58:00,71601,11
5049X15151R2S ,08:02:00,08:02:00,71600,12
5049X15400R2S ,08:20:00,08:20:00,71600,20
5049X15400R2S ,08:36:00,08:36:00,71601,21
5049X15400R2S ,08:38:00,08:38:00,71602,22
5049X15400R2S ,08:40:00,08:40:00,71603,23
5049X15400R2S ,08:43:00,08:43:00,71604,24
5049X15400R2S ,08:48:00,08:48:00,71700,25
5049X15400R2S ,08:55:00,08:55:00,71701,26
5049X15400R2S ,09:08:00,09:08:00,71705,27
5049X15400R2S ,09:12:00,09:12:00,71706,28
5049X15400R2S ,09:32:00,09:32:00,71801,29
5049X15400R2S ,09:38:00,09:38:00,71802,30
5049X15400R2S ,09:49:00,09:49:00,79400,31
5049X15804R2N ,09:07:00,09:07:00,79100,23
5049X15804R2N ,09:24:00,09:24:00,79004,24
5049X15804R2N ,09:29:00,09:29:00,79009,25
5049X15804R2N ,09:34:00,09:34:00,71802,26
5049X15804R2N ,09:40:00,09:40:00,71801,27
5049X15806R2  ,10:04:00,10:04:00,79200,18
5049X15806R2  ,10:09:00,10:09:00,79107,19
5049X15806R2  ,10:14:00,10:14:00,79106,20
5049X15806R2  ,10:17:00,10:17:00,79105,21
5049X15806R2  ,10:21:00,10:21:00,79104,22
5049X15806R2N ,10:37:00,10:37:00,79100,23
5049X15806R2N ,10:54:00,10:54:00,79004,24
5049X15806R2N ,10:59:00,10:59:00,79009,25
5049X15806R2N ,11:04:00,11:04:00,71802,26
5049X15806R2N ,11:10:00,11:10:00,71801,27
5049X15808R2  ,12:04:00,12:04:00,79200,18
5049X15808R2  ,12:09:00,12:09:00,79107,19
5049X15808R2  ,12:14:00,12:14:00,79106,20
5049X15808R2  ,12:17:00,12:17:00,79105,21
5049X15808R2  ,12:21:00,12:21:00,79104,22
5049X15808R2N ,12:37:00,12:37:00,79100,23
5049X15808R2N ,12:54:00,12:54:00,79004,24
5049X15808R2N ,12:59:00,12:59:00,79009,25
5049X15808R2N ,13:04:00,13:04:00,71802,26
5049X15808R2N ,13:10:00,13:10:00,71801,27
5049X15810R2  ,14:04:00,14:04:00,79200,18
5049X15810R2  ,14:09:00,14:09:00,79107,19
5049X15810R2  ,14:14:00,14:14:00,79106,20
5049X15810R2  ,14:17:00,14:17:00,79105,21
5049X15810R2  ,14:21:00,14:21:00,79104,22
5049X15810R2N ,14:37:00,14:37:00,79100,23
5049X15810R2N ,14:54:00,14:54:00,79004,24
5049X15810R2N ,14:59:00,14:59:00,79009,25
5049X15810R2N ,15:04:00,15:04:00,71802,26
5049X15810R2N ,15:10:00,15:10:00,71801,27
5049X15812R2  ,16:04:00,16:04:00,79200,18
5049X15812R2  ,16:09:00,16:09:00,79107,19
5049X15812R2  ,16:14:00,16:14:00,79106,20
5049X15812R2  ,16:17:00,16:17:00,79105,21
5049X15812R2  ,16:21:00,16:21:00,79104,22
5049X15812R2N ,16:37:00,16:37:00,79100,23
5049X15812R2N ,16:54:00,16:54:00,79004,24
5049X15812R2N ,16:59:00,16:59:00,79009,25
5049X15812R2N ,17:04:00,17:04:00,71802,26
5049X15812R2N ,17:10:00,17:10:00,71801,27
5049X15814R2  ,17:34:00,17:34:00,79200,18
5049X15814R2  ,17:39:00,17:39:00,79107,19
5049X15814R2  ,17:44:00,17:44:00,79106,20
5049X15814R2  ,17:47:00,17:47:00,79105,21
5049X15814R2  ,17:51:00,17:51:00,79104,22
5049X15814R2N ,18:07:00,18:07:00,79100,23
5049X15814R2N ,18:24:00,18:24:00,79004,24
5049X15814R2N ,18:29:00,18:29:00,79009,25
5049X15814R2N ,18:34:00,18:34:00,71802,26
5049X15814R2N ,18:40:00,18:40:00,71801,27
5049X15818R2  ,19:04:00,19:04:00,79200,18
5049X15818R2  ,19:09:00,19:09:00,79107,19
5049X15818R2  ,19:14:00,19:14:00,79106,20
5049X15818R2  ,19:17:00,19:17:00,79105,21
5049X15818R2  ,19:21:00,19:21:00,79104,22
5049X15818R2N ,19:37:00,19:37:00,79100,23
5049X15818R2N ,19:54:00,19:54:00,79004,24
5049X15818R2N ,19:59:00,19:59:00,79009,25
5049X15818R2N ,20:04:00,20:04:00,71802,26
5049X15818R2N ,20:10:00,20:10:00,71801,27
5049X15820R2  ,20:34:00,20:34:00,79200,18
5049X15820R2  ,20:39:00,20:39:00,79107,19
5049X15820R2  ,20:44:00,20:44:00,79106,20
5049X15820R2  ,20:47:00,20:47:00,79105,21
5049X15820R2  ,20:51:00,20:51:00,79104,22
5049X15820R2N ,21:07:00,21:07:00,79100,23
5049X15820R2N ,21:24:00,21:24:00,79004,24
5049X15820R2N ,21:29:00,21:29:00,79009,25
5049X15820R2N ,21:34:00,21:34:00,71802,26
5049X15820R2N ,21:40:00,21:40:00,71801,27
5049X25000R4  ,05:52:00,05:52:00,78600,01
5049X25000R4  ,06:01:00,06:01:00,78604,02
5049X25000R4  ,06:08:00,06:08:00,78605,03
5049X25000R4  ,06:13:00,06:13:00,78606,04
5049X25000R4  ,06:16:00,06:16:00,78607,05
5049X25000R4  ,06:23:00,06:23:00,78609,06
5049X25000R4  ,06:25:00,06:25:00,78610,07
5049X25000R4  ,06:29:00,06:29:00,78700,08
5049X25000R4  ,06:33:00,06:33:00,78710,09
5049X25000R4  ,06:37:00,06:37:00,78709,10
5049X25000R4  ,06:40:00,06:40:00,78704,11
5049X25000R4  ,06:43:00,06:43:00,78703,12
5049X25000R4  ,06:46:00,06:46:00,78705,13
5049X25000R4  ,06:49:00,06:49:00,78706,14
5049X25000R4  ,06:51:00,06:51:00,78707,15
5049X25000R4  ,06:54:00,06:54:00,78708,16
5049X25000R4  ,06:57:00,06:57:00,78800,17
5049X25000R4  ,06:59:00,06:59:00,78801,18
5049X25000R4  ,07:02:00,07:02:00,78802,19
5049X25000R4  ,07:04:00,07:04:00,78806,20
5049X25000R4  ,07:10:00,07:10:00,78804,21
5049X25000R4  ,07:12:00,07:12:00,78805,22
5049X25000R4  ,07:17:00,07:17:00,71801,23
5049X25000R4  ,07:25:00,07:25:00,72305,24
5049X25000R4  ,07:28:00,07:28:00,72303,25
5049X25000R4  ,07:30:00,07:30:00,72302,26
5049X25000R4  ,07:32:00,07:32:00,72301,27
5049X25000R4  ,07:35:00,07:35:00,72300,28
5049X25000R4  ,07:39:00,07:39:00,72211,29
5049X25000R4  ,07:44:00,07:44:00,72210,30
5049X25000R4  ,07:48:00,07:48:00,72209,31
5049X25000R4  ,07:54:00,07:54:00,72208,32
5049X25000R4  ,07:59:00,07:59:00,72207,33
5049X25000R4  ,08:02:00,08:02:00,72206,34
5049X25000R4  ,08:06:00,08:06:00,72205,35
5049X25000R4  ,08:10:00,08:10:00,72204,36
5049X25000R4  ,08:16:00,08:16:00,72203,37
5049X25000R4  ,08:21:00,08:21:00,72202,38
5049X25000R4  ,08:26:00,08:26:00,72201,39
5049X25000R4  ,08:33:00,08:33:00,71600,40
5049X25002R4  ,04:39:00,04:39:00,78700,01
5049X25002R4  ,04:42:00,04:42:00,78710,02
5049X25002R4  ,04:46:00,04:46:00,78709,03
5049X25002R4  ,04:49:00,04:49:00,78704,04
5049X25002R4  ,04:52:00,04:52:00,78703,05
5049X25002R4  ,04:55:00,04:55:00,78705,06
5049X25002R4  ,04:58:00,04:58:00,78706,07
5049X25002R4  ,05:00:00,05:00:00,78707,08
5049X25002R4  ,05:03:00,05:03:00,78708,09
5049X25002R4  ,05:06:00,05:06:00,78800,10
5049X25002R4  ,05:08:00,05:08:00,78801,11
5049X25002R4  ,05:11:00,05:11:00,78802,12
5049X25002R4  ,05:13:00,05:13:00,78806,13
5049X25002R4  ,05:20:00,05:20:00,78804,14
5049X25002R4  ,05:22:00,05:22:00,78805,15
5049X25002R4  ,05:27:00,05:27:00,71801,16
5049X25002R4  ,05:35:00,05:35:00,72305,17
5049X25002R4  ,05:38:00,05:38:00,72303,18
5049X25002R4  ,05:41:00,05:41:00,72302,19
5049X25002R4  ,05:43:00,05:43:00,72301,20
5049X25002R4  ,05:47:00,05:47:00,72300,21
5049X25002R4  ,05:52:00,05:52:00,72211,22
5049X25002R4  ,05:57:00,05:57:00,72210,23
5049X25002R4  ,06:01:00,06:01:00,72209,24
5049X25002R4  ,06:07:00,06:07:00,72208,25
5049X25002R4  ,06:12:00,06:12:00,72207,26
5049X25002R4  ,06:15:00,06:15:00,72206,27
5049X25002R4  ,06:19:00,06:19:00,72205,28
5049X25002R4  ,06:23:00,06:23:00,72204,29
5049X25002R4  ,06:29:00,06:29:00,72203,30
5049X25002R4  ,06:34:00,06:34:00,72202,31
5049X25002R4  ,06:39:00,06:39:00,72201,32
5049X25002R4  ,06:46:00,06:46:00,71600,33
5049X25300R3  ,05:48:00,05:48:00,77109,01
5049X25300R3  ,05:55:00,05:55:00,77107,02
5049X25300R3  ,05:58:00,05:58:00,77106,03
5049X25300R3  ,06:00:00,06:00:00,77105,04
5049X25300R3  ,06:05:00,06:05:00,77104,05
5049X25300R3  ,06:10:00,06:10:00,77103,06
5049X25300R3  ,06:17:00,06:17:00,77102,07
5049X25300R3  ,06:22:00,06:22:00,77100,08
5049X25300R3  ,06:25:00,06:25:00,77006,09
5049X25300R3  ,06:31:00,06:31:00,77005,10
5049X25300R3  ,06:34:00,06:34:00,77004,11
5049X25300R3  ,06:36:00,06:36:00,77003,12
5049X25300R3  ,06:39:00,06:39:00,77002,13
5049X25300R3  ,06:45:00,06:45:00,78800,14
5049X25300R3  ,06:48:00,06:48:00,78801,15
5049X25300R3  ,06:51:00,06:51:00,78802,16
5049X25300R3  ,06:53:00,06:53:00,78806,17
5049X25300R3  ,06:59:00,06:59:00,78804,18
5049X25300R3  ,07:01:00,07:01:00,78805,19
5049X25300R3  ,07:06:00,07:06:00,71801,20
5049X25300R3  ,07:14:00,07:14:00,72305,21
5049X25301R3  ,05:03:00,05:03:00,72305,01
5049X25301R3  ,05:10:00,05:10:00,71801,02
5049X25301R3  ,05:15:00,05:15:00,78805,03
5049X25301R3  ,05:18:00,05:18:00,78804,04
5049X25301R3  ,05:23:00,05:23:00,78806,05
5049X25301R3  ,05:26:00,05:26:00,78802,06
5049X25301R3  ,05:29:00,05:29:00,78801,07
5049X25301R3  ,05:32:00,05:32:00,78800,08
5049X25301R3  ,05:37:00,05:37:00,77002,09
5049X25301R3  ,05:41:00,05:41:00,77003,10
5049X25301R3  ,05:43:00,05:43:00,77004,11
5049X25301R3  ,05:47:00,05:47:00,77005,12
5049X25301R3  ,05:55:00,05:55:00,77006,13
5049X25301R3  ,06:00:00,06:00:00,77100,14
5049X25301R3  ,06:06:00,06:06:00,77102,15
5049X25301R3  ,06:11:00,06:11:00,77103,16
5049X25301R3  ,06:18:00,06:18:00,77104,17
5049X25301R3  ,06:23:00,06:23:00,77105,18
5049X25301R3  ,06:27:00,06:27:00,77106,19
5049X25301R3  ,06:30:00,06:30:00,77107,20
5049X25301R3  ,06:38:00,06:38:00,77109,21
5049X25302R3  ,05:07:00,05:07:00,77006,01
5049X25302R3  ,05:14:00,05:14:00,77005,02
5049X25302R3  ,05:17:00,05:17:00,77004,03
5049X25302R3  ,05:21:00,05:21:00,77003,04
5049X25302R3  ,05:24:00,05:24:00,77002,05
5049X25302R3  ,05:30:00,05:30:00,78800,06
5049X25302R3  ,05:36:00,05:36:00,78801,07
5049X25302R3  ,05:40:00,05:40:00,78802,08
5049X25302R3  ,05:42:00,05:42:00,78806,09
5049X25302R3  ,05:48:00,05:48:00,78804,10
5049X25302R3  ,05:50:00,05:50:00,78805,11
5049X25302R3  ,05:55:00,05:55:00,71801,12
5049X25302R3  ,06:03:00,06:03:00,72305,13
5049X25313R3  ,10:43:00,10:43:00,72305,01
5049X25313R3  ,10:50:00,10:50:00,71801,02
5049X25313R3  ,10:55:00,10:55:00,78805,03
5049X25313R3  ,10:58:00,10:58:00,78804,04
5049X25313R3  ,11:03:00,11:03:00,78806,05
5049X25313R3  ,11:06:00,11:06:00,78802,06
5049X25313R3  ,11:09:00,11:09:00,78801,07
5049X25313R3  ,11:12:00,11:12:00,78800,08
5049X25313R3  ,11:20:00,11:20:00,77002,09
5049X25313R3  ,11:24:00,11:24:00,77003,10
5049X25313R3  ,11:26:00,11:26:00,77004,11
5049X25313R3  ,11:31:00,11:31:00,77005,12
5049X25313R3  ,11:38:00,11:38:00,77006,13
5049X25400R2  ,04:45:00,04:45:00,71700,01
5049X25400R2  ,04:51:00,04:51:00,71701,02
5049X25400R2  ,04:59:00,04:59:00,71703,03
5049X25400R2  ,05:04:00,05:04:00,71704,04
5049X25400R2  ,05:07:00,05:07:00,71705,05
5049X25400R2  ,05:11:00,05:11:00,71706,06
5049X25400R2  ,05:14:00,05:14:00,71709,07
5049X25400R2  ,05:18:00,05:18:00,71707,08
5049X25400R2  ,05:23:00,05:23:00,71708,09
5049X25400R2  ,05:29:00,05:29:00,71801,10
5049X25400R2  ,05:34:00,05:34:00,71802,11
5049X25400R2  ,05:38:00,05:38:00,79009,12
5049X25400R2  ,05:43:00,05:43:00,79004,13
5049X25400R2  ,05:50:00,05:50:00,79005,14
5049X25400R2  ,05:53:00,05:53:00,79011,15
5049X25400R2  ,05:57:00,05:57:00,79006,16
5049X25400R2  ,06:01:00,06:01:00,79007,17
5049X25400R2  ,06:08:00,06:08:00,79100,18
5049X25400R2  ,06:12:00,06:12:00,79109,19
5049X25400R2  ,06:17:00,06:17:00,79101,20
5049X25400R2  ,06:20:00,06:20:00,79102,21
5049X25400R2  ,06:26:00,06:26:00,79103,22
5049X25400R2  ,06:29:00,06:29:00,79104,23
5049X25400R2  ,06:34:00,06:34:00,79105,24
5049X25400R2  ,06:37:00,06:37:00,79106,25
5049X25400R2  ,06:43:00,06:43:00,79107,26
5049X25400R2  ,06:49:00,06:49:00,79200,27
5049X25478R2S ,21:32:00,21:32:00,71600,01
5049X25478R2S ,21:37:00,21:37:00,71601,02
5049X25478R2S ,21:40:00,21:40:00,71602,03
5049X25478R2S ,21:43:00,21:43:00,71603,04
5049X25478R2S ,21:47:00,21:47:00,71604,05
5049X25478R2S ,21:51:00,21:51:00,71700,06
5049X25478R2S ,21:58:00,21:58:00,71701,07
5049X25478R2S ,22:12:00,22:12:00,71705,08
5049X25478R2S ,22:16:00,22:16:00,71706,09
5049X25478R2S ,22:34:00,22:34:00,71801,10
5049X25478R2S ,22:40:00,22:40:00,71802,11
5049X25478R2S ,22:51:00,22:51:00,79400,12
5049X25480R2S ,07:54:00,07:54:00,71705,01
5049X25480R2S ,07:57:00,07:57:00,71706,02
5049X25480R2S ,08:00:00,08:00:00,71709,03
5049X25480R2S ,08:04:00,08:04:00,71707,04
5049X25480R2S ,08:10:00,08:10:00,71708,05
5049X25480R2S ,08:17:00,08:17:00,71801,06
5049X25480R2S ,08:23:00,08:23:00,71802,07
5049X25480R2S ,08:34:00,08:34:00,79400,08
5049X25482R2S ,08:26:00,08:26:00,71700,01
5049X25482R2S ,08:32:00,08:32:00,71701,02
5049X25482R2S ,08:41:00,08:41:00,71703,03
5049X25482R2S ,08:45:00,08:45:00,71704,04
5049X25482R2S ,08:48:00,08:48:00,71705,05
5049X25482R2S ,08:52:00,08:52:00,71706,06
5049X25482R2S ,08:55:00,08:55:00,71709,07
5049X25482R2S ,08:59:00,08:59:00,71707,08
5049X25482R2S ,09:04:00,09:04:00,71708,09
5049X25482R2S ,09:10:00,09:10:00,71801,10
5049X25482R2S ,09:16:00,09:16:00,71802,11
5049X25482R2S ,09:28:00,09:28:00,79400,12
5049X25484R2  ,09:24:00,09:24:00,71705,01
5049X25484R2  ,09:27:00,09:27:00,71706,02
5049X25484R2  ,09:30:00,09:30:00,71709,03
5049X25484R2  ,09:34:00,09:34:00,71707,04
5049X25484R2  ,09:40:00,09:40:00,71708,05
5049X25484R2  ,09:47:00,09:47:00,71801,06
5049X25484R2  ,09:53:00,09:53:00,71802,07
5049X25484R2  ,09:58:00,09:58:00,79009,08
5049X25484R2  ,10:03:00,10:03:00,79004,09
5049X25484R2  ,10:10:00,10:10:00,79005,10
5049X25484R2  ,10:13:00,10:13:00,79011,11
5049X25484R2  ,10:16:00,10:16:00,79006,12
5049X25484R2  ,10:20:00,10:20:00,79007,13
5049X25484R2  ,10:26:00,10:26:00,79100,14
5049X25800R7  ,06:53:00,06:53:00,72503,01
5049X25800R7  ,06:58:00,06:58:00,78706,02
5049X25800R7  ,07:00:00,07:00:00,78707,03
5049X25800R7  ,07:03:00,07:03:00,78708,04
5049X25800R7  ,07:06:00,07:06:00,78800,05
5049X25800R7  ,07:08:00,07:08:00,78801,06
5049X25800R7  ,07:11:00,07:11:00,78802,07
5049X25801R7  ,06:23:00,06:23:00,78802,01
5049X25801R7  ,06:26:00,06:26:00,78801,02
5049X25801R7  ,06:28:00,06:28:00,78800,03
5049X25801R7  ,06:31:00,06:31:00,78708,04
5049X25801R7  ,06:34:00,06:34:00,78707,05
5049X25801R7  ,06:36:00,06:36:00,78706,06
5049X25801R7  ,06:42:00,06:42:00,72503,07
5049X25802R7  ,07:25:00,07:25:00,72503,01
5049X25802R7  ,07:30:00,07:30:00,78706,02
5049X25802R7  ,07:33:00,07:33:00,78707,03
5049X25802R7  ,07:36:00,07:36:00,78708,04
5049X25802R7  ,07:39:00,07:39:00,78800,05
5049X25802R7  ,07:41:00,07:41:00,78801,06
5049X25802R7  ,07:44:00,07:44:00,78802,07
5049X25803R7  ,06:54:00,06:54:00,78802,01
5049X25803R7  ,06:57:00,06:57:00,78801,02
5049X25803R7  ,06:59:00,06:59:00,78800,03
5049X25803R7  ,07:02:00,07:02:00,78708,04
5049X25803R7  ,07:05:00,07:05:00,78707,05
5049X25803R7  ,07:07:00,07:07:00,78706,06
5049X25803R7  ,07:13:00,07:13:00,72503,07
5049X25804R7  ,07:53:00,07:53:00,72503,01
5049X25804R7  ,07:58:00,07:58:00,78706,02
5049X25804R7  ,08:01:00,08:01:00,78707,03
5049X25804R7  ,08:04:00,08:04:00,78708,04
5049X25804R7  ,08:07:00,08:07:00,78800,05
5049X25804R7  ,08:09:00,08:09:00,78801,06
5049X25804R7  ,08:12:00,08:12:00,78802,07
5049X28400R2N ,04:55:00,04:55:00,79100,01
5049X28400R2N ,05:00:00,05:00:00,79007,02
5049X28400R2N ,05:03:00,05:03:00,79006,03
5049X28400R2N ,05:07:00,05:07:00,79011,04
5049X28400R2N ,05:10:00,05:10:00,79005,05
5049X28400R2N ,05:16:00,05:16:00,79004,06
5049X28400R2N ,05:21:00,05:21:00,79009,07
5049X28400R2N ,05:27:00,05:27:00,71802,08
5049X28400R2N ,05:33:00,05:33:00,71801,09
5049X28400R2N ,05:41:00,05:41:00,71708,10
5049X28400R2N ,05:45:00,05:45:00,71707,11
5049X28400R2N ,05:52:00,05:52:00,72400,12
5049X28402R2N ,05:29:00,05:29:00,79100,01
5049X28402R2N ,05:34:00,05:34:00,79007,02
5049X28402R2N ,05:37:00,05:37:00,79006,03
5049X28402R2N ,05:41:00,05:41:00,79011,04
5049X28402R2N ,05:44:00,05:44:00,79005,05
5049X28402R2N ,05:50:00,05:50:00,79004,06
5049X28402R2N ,05:55:00,05:55:00,79009,07
5049X28402R2N ,06:01:00,06:01:00,71802,08
5049X28402R2N ,06:07:00,06:07:00,71801,09
5049X28402R2N ,06:15:00,06:15:00,71708,10
5049X28402R2N ,06:19:00,06:19:00,71707,11
5049X28402R2N ,06:26:00,06:26:00,72400,12
5049X28404R2N ,05:37:00,05:37:00,79104,01
5049X28404R2N ,05:41:00,05:41:00,79103,02
5049X28404R2N ,05:45:00,05:45:00,79102,03
5049X28404R2N ,05:49:00,05:49:00,79101,04
5049X28404R2N ,05:55:00,05:55:00,79109,05
5049X28404R2N ,05:58:00,05:58:00,79100,06
5049X28404R2N ,06:04:00,06:04:00,79007,07
5049X28404R2N ,06:07:00,06:07:00,79006,08
5049X28404R2N ,06:11:00,06:11:00,79011,09
5049X28404R2N ,06:14:00,06:14:00,79005,10
5049X28404R2N ,06:20:00,06:20:00,79004,11
5049X28404R2N ,06:25:00,06:25:00,79009,12
5049X28404R2N ,06:31:00,06:31:00,71802,13
5049X28404R2N ,06:37:00,06:37:00,71801,14
5049X28404R2N ,06:45:00,06:45:00,71708,15
5049X28404R2N ,06:49:00,06:49:00,71707,16
5049X28404R2N ,06:56:00,06:56:00,72400,17
5049X28406R2N ,06:07:00,06:07:00,79104,01
5049X28406R2N ,06:11:00,06:11:00,79103,02
5049X28406R2N ,06:15:00,06:15:00,79102,03
5049X28406R2N ,06:19:00,06:19:00,79101,04
5049X28406R2N ,06:25:00,06:25:00,79109,05
5049X28406R2N ,06:28:00,06:28:00,79100,06
5049X28406R2N ,06:34:00,06:34:00,79007,07
5049X28406R2N ,06:37:00,06:37:00,79006,08
5049X28406R2N ,06:41:00,06:41:00,79011,09
5049X28406R2N ,06:44:00,06:44:00,79005,10
5049X28406R2N ,06:50:00,06:50:00,79004,11
5049X28406R2N ,06:55:00,06:55:00,79009,12
5049X28406R2N ,07:01:00,07:01:00,71802,13
5049X28406R2N ,07:07:00,07:07:00,71801,14
5049X28406R2N ,07:15:00,07:15:00,71708,15
5049X28406R2N ,07:19:00,07:19:00,71707,16
5049X28406R2N ,07:26:00,07:26:00,72400,17
5049X28408R2N ,06:19:00,06:19:00,79200,01
5049X28408R2N ,06:24:00,06:24:00,79107,02
5049X28408R2N ,06:29:00,06:29:00,79106,03
5049X28408R2N ,06:32:00,06:32:00,79105,04
5049X28408R2N ,06:36:00,06:36:00,79104,05
5049X28408R2N ,06:41:00,06:41:00,79103,06
5049X28408R2N ,06:45:00,06:45:00,79102,07
5049X28408R2N ,06:49:00,06:49:00,79101,08
5049X28408R2N ,06:55:00,06:55:00,79109,09
5049X28408R2N ,06:58:00,06:58:00,79100,10
5049X28408R2N ,07:04:00,07:04:00,79007,11
5049X28408R2N ,07:07:00,07:07:00,79006,12
5049X28408R2N ,07:11:00,07:11:00,79011,13
5049X28408R2N ,07:14:00,07:14:00,79005,14
5049X28408R2N ,07:20:00,07:20:00,79004,15
5049X28408R2N ,07:25:00,07:25:00,79009,16
5049X28408R2N ,07:31:00,07:31:00,71802,17
5049X28408R2N ,07:37:00,07:37:00,71801,18
5049X28408R2N ,07:45:00,07:45:00,71708,19
5049X28408R2N ,07:49:00,07:49:00,71707,20
5049X28408R2N ,07:56:00,07:56:00,72400,21
5049X28410R2N ,07:07:00,07:07:00,79104,01
5049X28410R2N ,07:11:00,07:11:00,79103,02
5049X28410R2N ,07:15:00,07:15:00,79102,03
5049X28410R2N ,07:19:00,07:19:00,79101,04
5049X28410R2N ,07:25:00,07:25:00,79109,05
5049X28410R2N ,07:28:00,07:28:00,79100,06
5049X28410R2N ,07:34:00,07:34:00,79007,07
5049X28410R2N ,07:37:00,07:37:00,79006,08
5049X28410R2N ,07:41:00,07:41:00,79011,09
5049X28410R2N ,07:44:00,07:44:00,79005,10
5049X28410R2N ,07:50:00,07:50:00,79004,11
5049X28410R2N ,07:55:00,07:55:00,79009,12
5049X28410R2N ,08:01:00,08:01:00,71802,13
5049X28410R2N ,08:07:00,08:07:00,71801,14
5049X28410R2N ,08:15:00,08:15:00,71708,15
5049X28410R2N ,08:19:00,08:19:00,71707,16
5049X28410R2N ,08:26:00,08:26:00,72400,17
5049X28600R8  ,06:14:00,06:14:00,72209,01
5049X28600R8  ,06:19:00,06:19:00,72210,02
5049X28600R8  ,06:28:00,06:28:00,72501,03
5049X28600R8  ,06:32:00,06:32:00,72502,04
5049X28600R8  ,06:35:00,06:35:00,72503,05
5049X28600R8  ,06:47:00,06:47:00,79006,06
5049X28600R8  ,06:51:00,06:51:00,79007,07
5049X28600R8  ,06:58:00,06:58:00,79100,08
5049X28602R8  ,07:23:00,07:23:00,72209,01
5049X28602R8  ,07:28:00,07:28:00,72210,02
5049X28602R8  ,07:36:00,07:36:00,72501,03
5049X28602R8  ,07:40:00,07:40:00,72502,04
5049X28602R8  ,07:43:00,07:43:00,72503,05
5049X28602R8  ,07:53:00,07:53:00,79006,06
5049X28602R8  ,07:57:00,07:57:00,79007,07
5049X28602R8  ,08:04:00,08:04:00,79100,08
5049X28604R8  ,08:18:00,08:18:00,72209,01
5049X28604R8  ,08:23:00,08:23:00,72210,02
5049X28604R8  ,08:32:00,08:32:00,72501,03
5049X28604R8  ,08:36:00,08:36:00,72502,04
5049X28604R8  ,08:39:00,08:39:00,72503,05
5049X28604R8  ,08:49:00,08:49:00,79006,06
5049X28604R8  ,08:53:00,08:53:00,79007,07
5049X28604R8  ,09:00:00,09:00:00,79100,08
5049X28606R8  ,09:18:00,09:18:00,72209,01
5049X28606R8  ,09:23:00,09:23:00,72210,02
5049X28606R8  ,09:32:00,09:32:00,72501,03
5049X28606R8  ,09:36:00,09:36:00,72502,04
5049X28606R8  ,09:39:00,09:39:00,72503,05
5049X28606R8  ,09:49:00,09:49:00,79006,06
5049X28606R8  ,09:53:00,09:53:00,79007,07
5049X28606R8  ,10:00:00,10:00:00,79100,08
5049X28698R7  ,09:01:00,09:01:00,72503,01
5049X28698R7  ,09:06:00,09:06:00,78706,02
5049X28698R7  ,09:09:00,09:09:00,78707,03
5049X28698R7  ,09:12:00,09:12:00,78708,04
5049X28698R7  ,09:15:00,09:15:00,78800,05
5049X28698R7  ,09:18:00,09:18:00,78801,06
5049X28698R7  ,09:21:00,09:21:00,78802,07
5049X28699R7  ,22:33:00,22:33:00,78802,01
5049X28699R7  ,22:36:00,22:36:00,78801,02
5049X28699R7  ,22:38:00,22:38:00,78800,03
5049X28699R7  ,22:41:00,22:41:00,78708,04
5049X28699R7  ,22:44:00,22:44:00,78707,05
5049X28699R7  ,22:46:00,22:46:00,78706,06
5049X28699R7  ,22:52:00,22:52:00,72503,07
5049X28800R1  ,05:20:00,05:20:00,79603,01
5049X28800R1  ,05:24:00,05:24:00,79602,02
5049X28800R1  ,05:28:00,05:28:00,79601,03
5049X28800R1  ,05:32:00,05:32:00,79600,04
5049X28800R1  ,05:35:00,05:35:00,79502,05
5049X28800R1  ,05:39:00,05:39:00,79501,06
5049X28800R1  ,05:43:00,05:43:00,79500,07
5049X28800R1  ,05:48:00,05:48:00,79412,08
5049X28800R1  ,05:50:00,05:50:00,79410,09
5049X28800R1  ,05:53:00,05:53:00,79409,10
5049X28800R1  ,05:57:00,05:57:00,79408,11
5049X28800R1  ,05:59:00,05:59:00,79407,12
5049X28800R1  ,06:02:00,06:02:00,79406,13
5049X28800R1  ,06:04:00,06:04:00,79405,14
5049X28800R1  ,06:06:00,06:06:00,79404,15
5049X28800R1  ,06:10:00,06:10:00,79403,16
5049X28800R1  ,06:18:00,06:18:00,79009,17
5049X28800R1  ,06:23:00,06:23:00,78804,18
5049X28800R1  ,06:25:00,06:25:00,78805,19
5049X28800R1  ,06:30:00,06:30:00,71801,20
5049X28800R1  ,06:38:00,06:38:00,72305,21
5049X28800R1  ,06:42:00,06:42:00,72303,22
5049X28800R1  ,06:44:00,06:44:00,72302,23
5049X28800R1  ,06:46:00,06:46:00,72301,24
5049X28800R1  ,06:51:00,06:51:00,72300,25
5049X28802R1  ,05:14:00,05:14:00,79500,01
5049X28802R1  ,05:18:00,05:18:00,79412,02
5049X28802R1  ,05:20:00,05:20:00,79410,03
5049X28802R1  ,05:23:00,05:23:00,79409,04
5049X28802R1  ,05:27:00,05:27:00,79408,05
5049X28802R1  ,05:29:00,05:29:00,79407,06
5049X28802R1  ,05:32:00,05:32:00,79406,07
5049X28802R1  ,05:34:00,05:34:00,79405,08
5049X28802R1  ,05:36:00,05:36:00,79404,09
5049X28802R1  ,05:40:00,05:40:00,79403,10
5049X28802R1  ,05:48:00,05:48:00,79009,11
5049X28802R1  ,05:54:00,05:54:00,78804,12
5049X28802R1  ,05:56:00,05:56:00,78805,13
5049X28802R1  ,06:01:00,06:01:00,71801,14
5049X28802R1  ,06:09:00,06:09:00,72305,15
5049X28804R1  ,05:58:00,05:58:00,79600,04
5049X28804R1  ,06:01:00,06:01:00,79502,05
5049X28804R1  ,06:05:00,06:05:00,79501,06
5049X28804R1  ,06:09:00,06:09:00,79500,07
5049X28804R1  ,06:14:00,06:14:00,79412,08
5049X28804R1  ,06:16:00,06:16:00,79410,09
5049X28804R1  ,06:19:00,06:19:00,79409,10
5049X28804R1  ,06:23:00,06:23:00,79408,11
5049X28804R1  ,06:25:00,06:25:00,79407,12
5049X28804R1  ,06:28:00,06:28:00,79406,13
5049X28804R1  ,06:30:00,06:30:00,79405,14
5049X28804R1  ,06:32:00,06:32:00,79404,15
5049X28804R1  ,06:37:00,06:37:00,79403,16
5049X28804R1  ,06:49:00,06:49:00,79009,17
5049X28804R1  ,06:54:00,06:54:00,78804,18
5049X28804R1  ,06:56:00,06:56:00,78805,19
5049X28804R1  ,07:01:00,07:01:00,71801,20
5049X28804R1  ,07:09:00,07:09:00,72305,21
5049X28804R1  ,07:13:00,07:13:00,72303,22
5049X28804R1  ,07:15:00,07:15:00,72302,23
5049X28804R1  ,07:17:00,07:17:00,72301,24
5049X28804R1  ,07:21:00,07:21:00,72300,25
5049X28806R1  ,06:52:00,06:52:00,79600,01
5049X28806R1  ,06:54:00,06:54:00,79502,02
5049X28806R1  ,06:59:00,06:59:00,79501,03
5049X28806R1  ,07:04:00,07:04:00,79500,04
5049X28806R1  ,07:09:00,07:09:00,79412,05
5049X28806R1  ,07:11:00,07:11:00,79410,06
5049X28806R1  ,07:14:00,07:14:00,79409,07
5049X28806R1  ,07:18:00,07:18:00,79408,08
5049X28806R1  ,07:20:00,07:20:00,79407,09
5049X28806R1  ,07:23:00,07:23:00,79406,10
5049X28806R1  ,07:25:00,07:25:00,79405,11
5049X28806R1  ,07:27:00,07:27:00,79404,12
5049X28806R1  ,07:31:00,07:31:00,79403,13
5049X28806R1  ,07:41:00,07:41:00,79009,14
5049X28806R1  ,07:46:00,07:46:00,78804,15
5049X28806R1  ,07:48:00,07:48:00,78805,16
5049X28806R1  ,07:53:00,07:53:00,71801,17
5049X28806R1  ,08:01:00,08:01:00,72305,18
5049X28806R1  ,08:04:00,08:04:00,72303,19
5049X28806R1  ,08:06:00,08:06:00,72302,20
5049X28806R1  ,08:08:00,08:08:00,72301,21
5049X28806R1  ,08:13:00,08:13:00,72300,22