id_servei,estacio_inici,estacio_final,longitud,id_linia
R1A,72305,79200,83,R1
R1B,72305,79606,72,R1
R1C,72305,79603,60,R1
R1D,72305,79600,51,R1
R1E,72305,79500,42,R1
R1F,72300,79600,63,R1
R1G,72300,79500,52,R1
R2A,71600,71802,64,R2S
R2B,71700,71802,44,R2S
R2C,71705,79100,52,R2
R2D,72400,79100,41,R2N
R2E,72400,79104,61,R2N
R2F,72400,79200,77,R2N
R3A,72305,77006,57,R3
R3B,72305,77102,66,R3
R3C,72305,77109,94,R3
R3D,72305,77200,122,R3
R3E,72305,77200,122,R3
R3F,72305,77303,132,R3
R3G,72305,77309,161,R3
R3H,72305,77309,161,R3
R3I,72305,77309,161,R3
R4A,71600,78600,143,R4
R4B,72204,78600,132,R4
R4C,72204,78710,107,R4
R4D,72209,78710,89,R4
R4E,72305,78710,64,R4
R4F,72305,78600,92,R4
R7A,78802,72503,15,R7
R8A,72209,79100,40,R8
