id_unitat, id_serie, fabricant, any_fabricacio
597U,440, CAF,1974
483G,440, Macosa,1974
232Q,440, Macosa,1974
290J,440, CAF,1974
669O,447, Siemens,1997
027G,447, CAF,1998
686S,447, CAF,2000
935V,447, Alstom,1996
589S,447, Alstom,1995
411P,447, ABB,1993
162A,447, CAF,1998
109T,447, Alstom,1998
848H,448, CAF,1987
119R,448, CAF,1987
494E,448, CAF,1987
526M,448, MTM,1987
984N,448, Macosa,1987
484R,448, Ateinsa,1987
950M,448, Macosa,1987
755T,448, Ateinsa,1987
900L,448, Ateinsa,1987
995F,448, Ateinsa,1987
944Z,449, CAF,2008
924Q,449, CAF,2010
526U,449, CAF,2008
537Z,449, CAF,2008
397I,449, CAF,2008
835Z,449, CAF,2010
959E,450, Alstom,1990
756J,450, Alstom,1992
062G,450, CAF,1991
830X,450, Alstom,1994
853C,450, Alstom,1988
008G,450, Alstom,1992
712Q,451, Alstom,1989
091K,463, Alstom,2006
053G,464, CAF,2008
234Z,464, Alstom,2010
796B,464, Siemens,2005
988N,464, CAF,2007
002B,464, CAF,2004
701Q,464, Bombardier,2006
515M,464, Bombardier,2008
543K,464, Bombardier,2004
806Z,464, CAF,2008
579U,465, Bombardier,2009
960L,465, Bombardier,2010
667A,465, Alstom,2005
916H,470, Macosa,1974
558Z,470, Macosa,1974
186V,470, CAF,1974
907E,470, CAF,1974
819D,470, Macosa,1974
510D,470, Macosa,1974
109Q,470, CAF,1974
808K,470, CAF,1974
237T,470, Macosa,1974
777X,470, Macosa,1974
818U,470, Macosa,1974
